<?xml version="1.0" standalone="no"?>
<!DOCTYPE svg PUBLIC "-//W3C//DTD SVG 1.1//EN" 
  "http://www.w3.org/Graphics/SVG/1.1/DTD/svg11.dtd">
<svg xmlns="http://www.w3.org/2000/svg"
     version="1.1"
     width="297mm" height="210mm"
     viewBox="-148 -105 297 210">
  <!-- traits as CSS -->
  <defs>
    <!--
    <style type="text/css"><![CDATA[
      rect {
        stroke-width: 0.1;
        stroke: #000;
        fill: none;
      }
      ellipse  {
        stroke-width: 0.1;
        stroke: #000;
        fill: none;
      }
      path  {
        stroke-width: 0.1;
        stroke: #000;
        fill: none;
      }
    ]]></style>
    -->
    <style type="text/css"><![CDATA[
      * {
        stroke: #000;
        fill: none;
        stroke-width: 0.1;
      }
    ]]></style>
  </defs>
  <!-- a cross marking the center of the coordinate system -->
  <!--
  <path d="M -10  0 L 10 0" stroke="#f00" stroke-width="0.1" fill="none"/>
  <path d="M  0 -10 L 0 10" stroke="#0f0" stroke-width="0.1" fill="none"/>
  -->
  <g transform="scale(1, -1)">
    <rect  transform="translate(-86.4,-86.4) rotate(-0.0)" width="12.8" height="12.8"/>
    <ellipse  transform="translate(-79.08753380867923,-80.0) rotate(-0.0)" rx="2.8" ry="2.8"/>
    <ellipse  transform="translate(-79.08753380867923,-80.0) rotate(-0.0)" rx="1.9599999999999997" ry="1.9599999999999997"/>
    <ellipse  transform="translate(-79.08753380867923,-80.0) rotate(-0.0)" rx="1.3719999999999997" ry="1.3719999999999997"/>
    <ellipse  transform="translate(-79.08753380867923,-80.0) rotate(-0.0)" rx="0.9603999999999997" ry="0.9603999999999997"/>
    <ellipse  transform="translate(-79.08753380867923,-80.0) rotate(-0.0)" rx="0.6722799999999998" ry="0.6722799999999998"/>
    <rect  transform="translate(-86.4,-70.4) rotate(-0.0)" width="12.8" height="12.8"/>
    <ellipse  transform="translate(-78.327966443128,-64.3336192) rotate(-0.0)" rx="2.8" ry="2.8"/>
    <ellipse  transform="translate(-78.327966443128,-64.3336192) rotate(-0.0)" rx="1.9599999999999997" ry="1.9599999999999997"/>
    <ellipse  transform="translate(-78.327966443128,-64.3336192) rotate(-0.0)" rx="1.3719999999999997" ry="1.3719999999999997"/>
    <ellipse  transform="translate(-78.327966443128,-64.3336192) rotate(-0.0)" rx="0.9603999999999997" ry="0.9603999999999997"/>
    <ellipse  transform="translate(-78.327966443128,-64.3336192) rotate(-0.0)" rx="0.6722799999999998" ry="0.6722799999999998"/>
    <rect  transform="translate(-86.4,-54.4) rotate(-0.0)" width="12.8" height="12.8"/>
    <ellipse  transform="translate(-78.05938443742863,-49.9657728) rotate(-0.0)" rx="2.8" ry="2.8"/>
    <ellipse  transform="translate(-78.05938443742863,-49.9657728) rotate(-0.0)" rx="1.9599999999999997" ry="1.9599999999999997"/>
    <ellipse  transform="translate(-78.05938443742863,-49.9657728) rotate(-0.0)" rx="1.3719999999999997" ry="1.3719999999999997"/>
    <ellipse  transform="translate(-78.05938443742863,-49.9657728) rotate(-0.0)" rx="0.9603999999999997" ry="0.9603999999999997"/>
    <ellipse  transform="translate(-78.05938443742863,-49.9657728) rotate(-0.0)" rx="0.6722799999999998" ry="0.6722799999999998"/>
    <rect  transform="translate(-86.4,-38.4) rotate(-0.0)" width="12.8" height="12.8"/>
    <ellipse  transform="translate(-76.78222635814423,-28.6628864) rotate(-0.0)" rx="2.8" ry="2.8"/>
    <ellipse  transform="translate(-76.78222635814423,-28.6628864) rotate(-0.0)" rx="1.9599999999999997" ry="1.9599999999999997"/>
    <ellipse  transform="translate(-76.78222635814423,-28.6628864) rotate(-0.0)" rx="1.3719999999999997" ry="1.3719999999999997"/>
    <ellipse  transform="translate(-76.78222635814423,-28.6628864) rotate(-0.0)" rx="0.9603999999999997" ry="0.9603999999999997"/>
    <ellipse  transform="translate(-76.78222635814423,-28.6628864) rotate(-0.0)" rx="0.6722799999999998" ry="0.6722799999999998"/>
    <rect  transform="translate(-86.4,-22.4) rotate(-0.0)" width="12.8" height="12.8"/>
    <ellipse  transform="translate(-77.20326165696531,-17.6902144) rotate(-0.0)" rx="2.8" ry="2.8"/>
    <ellipse  transform="translate(-77.20326165696531,-17.6902144) rotate(-0.0)" rx="1.9599999999999997" ry="1.9599999999999997"/>
    <ellipse  transform="translate(-77.20326165696531,-17.6902144) rotate(-0.0)" rx="1.3719999999999997" ry="1.3719999999999997"/>
    <ellipse  transform="translate(-77.20326165696531,-17.6902144) rotate(-0.0)" rx="0.9603999999999997" ry="0.9603999999999997"/>
    <ellipse  transform="translate(-77.20326165696531,-17.6902144) rotate(-0.0)" rx="0.6722799999999998" ry="0.6722799999999998"/>
    <rect  transform="translate(-86.4,-6.4) rotate(-0.0)" width="12.8" height="12.8"/>
    <ellipse  transform="translate(-79.68486464684793,0.0) rotate(-0.0)" rx="2.8" ry="2.8"/>
    <ellipse  transform="translate(-79.68486464684793,0.0) rotate(-0.0)" rx="1.9599999999999997" ry="1.9599999999999997"/>
    <ellipse  transform="translate(-79.68486464684793,0.0) rotate(-0.0)" rx="1.3719999999999997" ry="1.3719999999999997"/>
    <ellipse  transform="translate(-79.68486464684793,0.0) rotate(-0.0)" rx="0.9603999999999997" ry="0.9603999999999997"/>
    <ellipse  transform="translate(-79.68486464684793,0.0) rotate(-0.0)" rx="0.6722799999999998" ry="0.6722799999999998"/>
    <rect  transform="translate(-86.4,9.6) rotate(-0.0)" width="12.8" height="12.8"/>
    <ellipse  transform="translate(-80.01855842399894,14.977024) rotate(-0.0)" rx="2.8" ry="2.8"/>
    <ellipse  transform="translate(-80.01855842399894,14.977024) rotate(-0.0)" rx="1.9599999999999997" ry="1.9599999999999997"/>
    <ellipse  transform="translate(-80.01855842399894,14.977024) rotate(-0.0)" rx="1.3719999999999997" ry="1.3719999999999997"/>
    <ellipse  transform="translate(-80.01855842399894,14.977024) rotate(-0.0)" rx="0.9603999999999997" ry="0.9603999999999997"/>
    <ellipse  transform="translate(-80.01855842399894,14.977024) rotate(-0.0)" rx="0.6722799999999998" ry="0.6722799999999998"/>
    <rect  transform="translate(-86.4,25.6) rotate(-0.0)" width="12.8" height="12.8"/>
    <ellipse  transform="translate(-79.18510354700527,33.3713408) rotate(-0.0)" rx="2.8" ry="2.8"/>
    <ellipse  transform="translate(-79.18510354700527,33.3713408) rotate(-0.0)" rx="1.9599999999999997" ry="1.9599999999999997"/>
    <ellipse  transform="translate(-79.18510354700527,33.3713408) rotate(-0.0)" rx="1.3719999999999997" ry="1.3719999999999997"/>
    <ellipse  transform="translate(-79.18510354700527,33.3713408) rotate(-0.0)" rx="0.9603999999999997" ry="0.9603999999999997"/>
    <ellipse  transform="translate(-79.18510354700527,33.3713408) rotate(-0.0)" rx="0.6722799999999998" ry="0.6722799999999998"/>
    <rect  transform="translate(-86.4,41.6) rotate(-0.0)" width="12.8" height="12.8"/>
    <ellipse  transform="translate(-83.88213840746037,46.6286592) rotate(-0.0)" rx="2.8" ry="2.8"/>
    <ellipse  transform="translate(-83.88213840746037,46.6286592) rotate(-0.0)" rx="1.9599999999999997" ry="1.9599999999999997"/>
    <ellipse  transform="translate(-83.88213840746037,46.6286592) rotate(-0.0)" rx="1.3719999999999997" ry="1.3719999999999997"/>
    <ellipse  transform="translate(-83.88213840746037,46.6286592) rotate(-0.0)" rx="0.9603999999999997" ry="0.9603999999999997"/>
    <ellipse  transform="translate(-83.88213840746037,46.6286592) rotate(-0.0)" rx="0.6722799999999998" ry="0.6722799999999998"/>
    <rect  transform="translate(-86.4,57.6) rotate(-0.0)" width="12.8" height="12.8"/>
    <ellipse  transform="translate(-80.18423886879356,65.022976) rotate(-0.0)" rx="2.8" ry="2.8"/>
    <ellipse  transform="translate(-80.18423886879356,65.022976) rotate(-0.0)" rx="1.9599999999999997" ry="1.9599999999999997"/>
    <ellipse  transform="translate(-80.18423886879356,65.022976) rotate(-0.0)" rx="1.3719999999999997" ry="1.3719999999999997"/>
    <ellipse  transform="translate(-80.18423886879356,65.022976) rotate(-0.0)" rx="0.9603999999999997" ry="0.9603999999999997"/>
    <ellipse  transform="translate(-80.18423886879356,65.022976) rotate(-0.0)" rx="0.6722799999999998" ry="0.6722799999999998"/>
    <rect  transform="translate(-86.4,73.6) rotate(-0.0)" width="12.8" height="12.8"/>
    <ellipse  transform="translate(-80.24604195473091,80.0) rotate(-0.0)" rx="2.8" ry="2.8"/>
    <ellipse  transform="translate(-80.24604195473091,80.0) rotate(-0.0)" rx="1.9599999999999997" ry="1.9599999999999997"/>
    <ellipse  transform="translate(-80.24604195473091,80.0) rotate(-0.0)" rx="1.3719999999999997" ry="1.3719999999999997"/>
    <ellipse  transform="translate(-80.24604195473091,80.0) rotate(-0.0)" rx="0.9603999999999997" ry="0.9603999999999997"/>
    <ellipse  transform="translate(-80.24604195473091,80.0) rotate(-0.0)" rx="0.6722799999999998" ry="0.6722799999999998"/>
    <rect  transform="translate(-70.4,-86.4) rotate(-0.0)" width="12.8" height="12.8"/>
    <ellipse  transform="translate(-63.249588753264256,-80.0) rotate(-0.0)" rx="2.8" ry="2.8"/>
    <ellipse  transform="translate(-63.249588753264256,-80.0) rotate(-0.0)" rx="1.9599999999999997" ry="1.9599999999999997"/>
    <ellipse  transform="translate(-63.249588753264256,-80.0) rotate(-0.0)" rx="1.3719999999999997" ry="1.3719999999999997"/>
    <ellipse  transform="translate(-63.249588753264256,-80.0) rotate(-0.0)" rx="0.9603999999999997" ry="0.9603999999999997"/>
    <ellipse  transform="translate(-63.249588753264256,-80.0) rotate(-0.0)" rx="0.6722799999999998" ry="0.6722799999999998"/>
    <rect  transform="translate(-70.4,-70.4) rotate(-0.0)" width="12.8" height="12.8"/>
    <ellipse  transform="translate(-67.10932539997957,-62.741302018047996) rotate(-0.0)" rx="2.8" ry="2.8"/>
    <ellipse  transform="translate(-67.10932539997957,-62.741302018047996) rotate(-0.0)" rx="1.9599999999999997" ry="1.9599999999999997"/>
    <ellipse  transform="translate(-67.10932539997957,-62.741302018047996) rotate(-0.0)" rx="1.3719999999999997" ry="1.3719999999999997"/>
    <ellipse  transform="translate(-67.10932539997957,-62.741302018047996) rotate(-0.0)" rx="0.9603999999999997" ry="0.9603999999999997"/>
    <ellipse  transform="translate(-67.10932539997957,-62.741302018047996) rotate(-0.0)" rx="0.6722799999999998" ry="0.6722799999999998"/>
    <rect  transform="translate(-70.4,-54.4) rotate(-0.0)" width="12.8" height="12.8"/>
    <ellipse  transform="translate(-64.48094230513117,-45.497685540864) rotate(-0.0)" rx="2.8" ry="2.8"/>
    <ellipse  transform="translate(-64.48094230513117,-45.497685540864) rotate(-0.0)" rx="1.9599999999999997" ry="1.9599999999999997"/>
    <ellipse  transform="translate(-64.48094230513117,-45.497685540864) rotate(-0.0)" rx="1.3719999999999997" ry="1.3719999999999997"/>
    <ellipse  transform="translate(-64.48094230513117,-45.497685540864) rotate(-0.0)" rx="0.9603999999999997" ry="0.9603999999999997"/>
    <ellipse  transform="translate(-64.48094230513117,-45.497685540864) rotate(-0.0)" rx="0.6722799999999998" ry="0.6722799999999998"/>
    <rect  transform="translate(-70.4,-38.4) rotate(-0.0)" width="12.8" height="12.8"/>
    <ellipse  transform="translate(-65.01882952019633,-34.186285580288) rotate(-0.0)" rx="2.8" ry="2.8"/>
    <ellipse  transform="translate(-65.01882952019633,-34.186285580288) rotate(-0.0)" rx="1.9599999999999997" ry="1.9599999999999997"/>
    <ellipse  transform="translate(-65.01882952019633,-34.186285580288) rotate(-0.0)" rx="1.3719999999999997" ry="1.3719999999999997"/>
    <ellipse  transform="translate(-65.01882952019633,-34.186285580288) rotate(-0.0)" rx="0.9603999999999997" ry="0.9603999999999997"/>
    <ellipse  transform="translate(-65.01882952019633,-34.186285580288) rotate(-0.0)" rx="0.6722799999999998" ry="0.6722799999999998"/>
    <rect  transform="translate(-70.4,-22.4) rotate(-0.0)" width="12.8" height="12.8"/>
    <ellipse  transform="translate(-65.04382067373604,-12.893939630079998) rotate(-0.0)" rx="2.8" ry="2.8"/>
    <ellipse  transform="translate(-65.04382067373604,-12.893939630079998) rotate(-0.0)" rx="1.9599999999999997" ry="1.9599999999999997"/>
    <ellipse  transform="translate(-65.04382067373604,-12.893939630079998) rotate(-0.0)" rx="1.3719999999999997" ry="1.3719999999999997"/>
    <ellipse  transform="translate(-65.04382067373604,-12.893939630079998) rotate(-0.0)" rx="0.9603999999999997" ry="0.9603999999999997"/>
    <ellipse  transform="translate(-65.04382067373604,-12.893939630079998) rotate(-0.0)" rx="0.6722799999999998" ry="0.6722799999999998"/>
    <rect  transform="translate(-70.4,-6.4) rotate(-0.0)" width="12.8" height="12.8"/>
    <ellipse  transform="translate(-66.04848828397611,0.33361919999999756) rotate(-0.0)" rx="2.8" ry="2.8"/>
    <ellipse  transform="translate(-66.04848828397611,0.33361919999999756) rotate(-0.0)" rx="1.9599999999999997" ry="1.9599999999999997"/>
    <ellipse  transform="translate(-66.04848828397611,0.33361919999999756) rotate(-0.0)" rx="1.3719999999999997" ry="1.3719999999999997"/>
    <ellipse  transform="translate(-66.04848828397611,0.33361919999999756) rotate(-0.0)" rx="0.9603999999999997" ry="0.9603999999999997"/>
    <ellipse  transform="translate(-66.04848828397611,0.33361919999999756) rotate(-0.0)" rx="0.6722799999999998" ry="0.6722799999999998"/>
    <rect  transform="translate(-70.4,9.6) rotate(-0.0)" width="12.8" height="12.8"/>
    <ellipse  transform="translate(-67.24737853461653,15.960072454144) rotate(-0.0)" rx="2.8" ry="2.8"/>
    <ellipse  transform="translate(-67.24737853461653,15.960072454144) rotate(-0.0)" rx="1.9599999999999997" ry="1.9599999999999997"/>
    <ellipse  transform="translate(-67.24737853461653,15.960072454144) rotate(-0.0)" rx="1.3719999999999997" ry="1.3719999999999997"/>
    <ellipse  transform="translate(-67.24737853461653,15.960072454144) rotate(-0.0)" rx="0.9603999999999997" ry="0.9603999999999997"/>
    <ellipse  transform="translate(-67.24737853461653,15.960072454144) rotate(-0.0)" rx="0.6722799999999998" ry="0.6722799999999998"/>
    <rect  transform="translate(-70.4,25.6) rotate(-0.0)" width="12.8" height="12.8"/>
    <ellipse  transform="translate(-64.36625273359921,35.532082577408) rotate(-0.0)" rx="2.8" ry="2.8"/>
    <ellipse  transform="translate(-64.36625273359921,35.532082577408) rotate(-0.0)" rx="1.9599999999999997" ry="1.9599999999999997"/>
    <ellipse  transform="translate(-64.36625273359921,35.532082577408) rotate(-0.0)" rx="1.3719999999999997" ry="1.3719999999999997"/>
    <ellipse  transform="translate(-64.36625273359921,35.532082577408) rotate(-0.0)" rx="0.9603999999999997" ry="0.9603999999999997"/>
    <ellipse  transform="translate(-64.36625273359921,35.532082577408) rotate(-0.0)" rx="0.6722799999999998" ry="0.6722799999999998"/>
    <rect  transform="translate(-70.4,41.6) rotate(-0.0)" width="12.8" height="12.8"/>
    <ellipse  transform="translate(-66.1440419374131,46.271579160576) rotate(-0.0)" rx="2.8" ry="2.8"/>
    <ellipse  transform="translate(-66.1440419374131,46.271579160576) rotate(-0.0)" rx="1.9599999999999997" ry="1.9599999999999997"/>
    <ellipse  transform="translate(-66.1440419374131,46.271579160576) rotate(-0.0)" rx="1.3719999999999997" ry="1.3719999999999997"/>
    <ellipse  transform="translate(-66.1440419374131,46.271579160576) rotate(-0.0)" rx="0.9603999999999997" ry="0.9603999999999997"/>
    <ellipse  transform="translate(-66.1440419374131,46.271579160576) rotate(-0.0)" rx="0.6722799999999998" ry="0.6722799999999998"/>
    <rect  transform="translate(-70.4,57.6) rotate(-0.0)" width="12.8" height="12.8"/>
    <ellipse  transform="translate(-65.89989299673913,65.08222676992) rotate(-0.0)" rx="2.8" ry="2.8"/>
    <ellipse  transform="translate(-65.89989299673913,65.08222676992) rotate(-0.0)" rx="1.9599999999999997" ry="1.9599999999999997"/>
    <ellipse  transform="translate(-65.89989299673913,65.08222676992) rotate(-0.0)" rx="1.3719999999999997" ry="1.3719999999999997"/>
    <ellipse  transform="translate(-65.89989299673913,65.08222676992) rotate(-0.0)" rx="0.9603999999999997" ry="0.9603999999999997"/>
    <ellipse  transform="translate(-65.89989299673913,65.08222676992) rotate(-0.0)" rx="0.6722799999999998" ry="0.6722799999999998"/>
    <rect  transform="translate(-70.4,73.6) rotate(-0.0)" width="12.8" height="12.8"/>
    <ellipse  transform="translate(-65.41728560555858,81.022976) rotate(-0.0)" rx="2.8" ry="2.8"/>
    <ellipse  transform="translate(-65.41728560555858,81.022976) rotate(-0.0)" rx="1.9599999999999997" ry="1.9599999999999997"/>
    <ellipse  transform="translate(-65.41728560555858,81.022976) rotate(-0.0)" rx="1.3719999999999997" ry="1.3719999999999997"/>
    <ellipse  transform="translate(-65.41728560555858,81.022976) rotate(-0.0)" rx="0.9603999999999997" ry="0.9603999999999997"/>
    <ellipse  transform="translate(-65.41728560555858,81.022976) rotate(-0.0)" rx="0.6722799999999998" ry="0.6722799999999998"/>
    <rect  transform="translate(-54.4,-86.4) rotate(-0.0)" width="12.8" height="12.8"/>
    <ellipse  transform="translate(-44.494943917670156,-80.0) rotate(-0.0)" rx="2.8" ry="2.8"/>
    <ellipse  transform="translate(-44.494943917670156,-80.0) rotate(-0.0)" rx="1.9599999999999997" ry="1.9599999999999997"/>
    <ellipse  transform="translate(-44.494943917670156,-80.0) rotate(-0.0)" rx="1.3719999999999997" ry="1.3719999999999997"/>
    <ellipse  transform="translate(-44.494943917670156,-80.0) rotate(-0.0)" rx="0.9603999999999997" ry="0.9603999999999997"/>
    <ellipse  transform="translate(-44.494943917670156,-80.0) rotate(-0.0)" rx="0.6722799999999998" ry="0.6722799999999998"/>
    <rect  transform="translate(-54.4,-70.4) rotate(-0.0)" width="12.8" height="12.8"/>
    <ellipse  transform="translate(-49.93051692140832,-64.699574321152) rotate(-0.0)" rx="2.8" ry="2.8"/>
    <ellipse  transform="translate(-49.93051692140832,-64.699574321152) rotate(-0.0)" rx="1.9599999999999997" ry="1.9599999999999997"/>
    <ellipse  transform="translate(-49.93051692140832,-64.699574321152) rotate(-0.0)" rx="1.3719999999999997" ry="1.3719999999999997"/>
    <ellipse  transform="translate(-49.93051692140832,-64.699574321152) rotate(-0.0)" rx="0.9603999999999997" ry="0.9603999999999997"/>
    <ellipse  transform="translate(-49.93051692140832,-64.699574321152) rotate(-0.0)" rx="0.6722799999999998" ry="0.6722799999999998"/>
    <rect  transform="translate(-54.4,-54.4) rotate(-0.0)" width="12.8" height="12.8"/>
    <ellipse  transform="translate(-44.819720838516176,-44.909508329472) rotate(-0.0)" rx="2.8" ry="2.8"/>
    <ellipse  transform="translate(-44.819720838516176,-44.909508329472) rotate(-0.0)" rx="1.9599999999999997" ry="1.9599999999999997"/>
    <ellipse  transform="translate(-44.819720838516176,-44.909508329472) rotate(-0.0)" rx="1.3719999999999997" ry="1.3719999999999997"/>
    <ellipse  transform="translate(-44.819720838516176,-44.909508329472) rotate(-0.0)" rx="0.9603999999999997" ry="0.9603999999999997"/>
    <ellipse  transform="translate(-44.819720838516176,-44.909508329472) rotate(-0.0)" rx="0.6722799999999998" ry="0.6722799999999998"/>
    <rect  transform="translate(-54.4,-38.4) rotate(-0.0)" width="12.8" height="12.8"/>
    <ellipse  transform="translate(-47.896440070198075,-33.900387270656005) rotate(-0.0)" rx="2.8" ry="2.8"/>
    <ellipse  transform="translate(-47.896440070198075,-33.900387270656005) rotate(-0.0)" rx="1.9599999999999997" ry="1.9599999999999997"/>
    <ellipse  transform="translate(-47.896440070198075,-33.900387270656005) rotate(-0.0)" rx="1.3719999999999997" ry="1.3719999999999997"/>
    <ellipse  transform="translate(-47.896440070198075,-33.900387270656005) rotate(-0.0)" rx="0.9603999999999997" ry="0.9603999999999997"/>
    <ellipse  transform="translate(-47.896440070198075,-33.900387270656005) rotate(-0.0)" rx="0.6722799999999998" ry="0.6722799999999998"/>
    <rect  transform="translate(-54.4,-22.4) rotate(-0.0)" width="12.8" height="12.8"/>
    <ellipse  transform="translate(-47.858064190383516,-18.022901383167998) rotate(-0.0)" rx="2.8" ry="2.8"/>
    <ellipse  transform="translate(-47.858064190383516,-18.022901383167998) rotate(-0.0)" rx="1.9599999999999997" ry="1.9599999999999997"/>
    <ellipse  transform="translate(-47.858064190383516,-18.022901383167998) rotate(-0.0)" rx="1.3719999999999997" ry="1.3719999999999997"/>
    <ellipse  transform="translate(-47.858064190383516,-18.022901383167998) rotate(-0.0)" rx="0.9603999999999997" ry="0.9603999999999997"/>
    <ellipse  transform="translate(-47.858064190383516,-18.022901383167998) rotate(-0.0)" rx="0.6722799999999998" ry="0.6722799999999998"/>
    <rect  transform="translate(-54.4,-6.4) rotate(-0.0)" width="12.8" height="12.8"/>
    <ellipse  transform="translate(-46.526595783362126,-1.9657728000000008) rotate(-0.0)" rx="2.8" ry="2.8"/>
    <ellipse  transform="translate(-46.526595783362126,-1.9657728000000008) rotate(-0.0)" rx="1.9599999999999997" ry="1.9599999999999997"/>
    <ellipse  transform="translate(-46.526595783362126,-1.9657728000000008) rotate(-0.0)" rx="1.3719999999999997" ry="1.3719999999999997"/>
    <ellipse  transform="translate(-46.526595783362126,-1.9657728000000008) rotate(-0.0)" rx="0.9603999999999997" ry="0.9603999999999997"/>
    <ellipse  transform="translate(-46.526595783362126,-1.9657728000000008) rotate(-0.0)" rx="0.6722799999999998" ry="0.6722799999999998"/>
    <rect  transform="translate(-54.4,9.6) rotate(-0.0)" width="12.8" height="12.8"/>
    <ellipse  transform="translate(-45.25887689813358,15.211360780287997) rotate(-0.0)" rx="2.8" ry="2.8"/>
    <ellipse  transform="translate(-45.25887689813358,15.211360780287997) rotate(-0.0)" rx="1.9599999999999997" ry="1.9599999999999997"/>
    <ellipse  transform="translate(-45.25887689813358,15.211360780287997) rotate(-0.0)" rx="1.3719999999999997" ry="1.3719999999999997"/>
    <ellipse  transform="translate(-45.25887689813358,15.211360780287997) rotate(-0.0)" rx="0.9603999999999997" ry="0.9603999999999997"/>
    <ellipse  transform="translate(-45.25887689813358,15.211360780287997) rotate(-0.0)" rx="0.6722799999999998" ry="0.6722799999999998"/>
    <rect  transform="translate(-54.4,25.6) rotate(-0.0)" width="12.8" height="12.8"/>
    <ellipse  transform="translate(-47.656577679339236,34.37150830592) rotate(-0.0)" rx="2.8" ry="2.8"/>
    <ellipse  transform="translate(-47.656577679339236,34.37150830592) rotate(-0.0)" rx="1.9599999999999997" ry="1.9599999999999997"/>
    <ellipse  transform="translate(-47.656577679339236,34.37150830592) rotate(-0.0)" rx="1.3719999999999997" ry="1.3719999999999997"/>
    <ellipse  transform="translate(-47.656577679339236,34.37150830592) rotate(-0.0)" rx="0.9603999999999997" ry="0.9603999999999997"/>
    <ellipse  transform="translate(-47.656577679339236,34.37150830592) rotate(-0.0)" rx="0.6722799999999998" ry="0.6722799999999998"/>
    <rect  transform="translate(-54.4,41.6) rotate(-0.0)" width="12.8" height="12.8"/>
    <ellipse  transform="translate(-48.402700345042106,47.876689035264) rotate(-0.0)" rx="2.8" ry="2.8"/>
    <ellipse  transform="translate(-48.402700345042106,47.876689035264) rotate(-0.0)" rx="1.9599999999999997" ry="1.9599999999999997"/>
    <ellipse  transform="translate(-48.402700345042106,47.876689035264) rotate(-0.0)" rx="1.3719999999999997" ry="1.3719999999999997"/>
    <ellipse  transform="translate(-48.402700345042106,47.876689035264) rotate(-0.0)" rx="0.9603999999999997" ry="0.9603999999999997"/>
    <ellipse  transform="translate(-48.402700345042106,47.876689035264) rotate(-0.0)" rx="0.6722799999999998" ry="0.6722799999999998"/>
    <rect  transform="translate(-54.4,57.6) rotate(-0.0)" width="12.8" height="12.8"/>
    <ellipse  transform="translate(-45.709511879571934,61.255224819712) rotate(-0.0)" rx="2.8" ry="2.8"/>
    <ellipse  transform="translate(-45.709511879571934,61.255224819712) rotate(-0.0)" rx="1.9599999999999997" ry="1.9599999999999997"/>
    <ellipse  transform="translate(-45.709511879571934,61.255224819712) rotate(-0.0)" rx="1.3719999999999997" ry="1.3719999999999997"/>
    <ellipse  transform="translate(-45.709511879571934,61.255224819712) rotate(-0.0)" rx="0.9603999999999997" ry="0.9603999999999997"/>
    <ellipse  transform="translate(-45.709511879571934,61.255224819712) rotate(-0.0)" rx="0.6722799999999998" ry="0.6722799999999998"/>
    <rect  transform="translate(-54.4,73.6) rotate(-0.0)" width="12.8" height="12.8"/>
    <ellipse  transform="translate(-48.392150048506686,76.6628864) rotate(-0.0)" rx="2.8" ry="2.8"/>
    <ellipse  transform="translate(-48.392150048506686,76.6628864) rotate(-0.0)" rx="1.9599999999999997" ry="1.9599999999999997"/>
    <ellipse  transform="translate(-48.392150048506686,76.6628864) rotate(-0.0)" rx="1.3719999999999997" ry="1.3719999999999997"/>
    <ellipse  transform="translate(-48.392150048506686,76.6628864) rotate(-0.0)" rx="0.9603999999999997" ry="0.9603999999999997"/>
    <ellipse  transform="translate(-48.392150048506686,76.6628864) rotate(-0.0)" rx="0.6722799999999998" ry="0.6722799999999998"/>
    <rect  transform="translate(-38.4,-86.4) rotate(-0.0)" width="12.8" height="12.8"/>
    <ellipse  transform="translate(-32.1165555849284,-78.6286592) rotate(-0.0)" rx="2.8" ry="2.8"/>
    <ellipse  transform="translate(-32.1165555849284,-78.6286592) rotate(-0.0)" rx="1.9599999999999997" ry="1.9599999999999997"/>
    <ellipse  transform="translate(-32.1165555849284,-78.6286592) rotate(-0.0)" rx="1.3719999999999997" ry="1.3719999999999997"/>
    <ellipse  transform="translate(-32.1165555849284,-78.6286592) rotate(-0.0)" rx="0.9603999999999997" ry="0.9603999999999997"/>
    <ellipse  transform="translate(-32.1165555849284,-78.6286592) rotate(-0.0)" rx="0.6722799999999998" ry="0.6722799999999998"/>
    <rect  transform="translate(-38.4,-70.4) rotate(-0.0)" width="12.8" height="12.8"/>
    <ellipse  transform="translate(-30.579313738792553,-65.097705521152) rotate(-0.0)" rx="2.8" ry="2.8"/>
    <ellipse  transform="translate(-30.579313738792553,-65.097705521152) rotate(-0.0)" rx="1.9599999999999997" ry="1.9599999999999997"/>
    <ellipse  transform="translate(-30.579313738792553,-65.097705521152) rotate(-0.0)" rx="1.3719999999999997" ry="1.3719999999999997"/>
    <ellipse  transform="translate(-30.579313738792553,-65.097705521152) rotate(-0.0)" rx="0.9603999999999997" ry="0.9603999999999997"/>
    <ellipse  transform="translate(-30.579313738792553,-65.097705521152) rotate(-0.0)" rx="0.6722799999999998" ry="0.6722799999999998"/>
    <rect  transform="translate(-38.4,-54.4) rotate(-0.0)" width="12.8" height="12.8"/>
    <ellipse  transform="translate(-34.856782255558464,-47.282257035263996) rotate(-0.0)" rx="2.8" ry="2.8"/>
    <ellipse  transform="translate(-34.856782255558464,-47.282257035263996) rotate(-0.0)" rx="1.9599999999999997" ry="1.9599999999999997"/>
    <ellipse  transform="translate(-34.856782255558464,-47.282257035263996) rotate(-0.0)" rx="1.3719999999999997" ry="1.3719999999999997"/>
    <ellipse  transform="translate(-34.856782255558464,-47.282257035263996) rotate(-0.0)" rx="0.9603999999999997" ry="0.9603999999999997"/>
    <ellipse  transform="translate(-34.856782255558464,-47.282257035263996) rotate(-0.0)" rx="0.6722799999999998" ry="0.6722799999999998"/>
    <rect  transform="translate(-38.4,-38.4) rotate(-0.0)" width="12.8" height="12.8"/>
    <ellipse  transform="translate(-36.54756439136894,-33.341757882368) rotate(-0.0)" rx="2.8" ry="2.8"/>
    <ellipse  transform="translate(-36.54756439136894,-33.341757882368) rotate(-0.0)" rx="1.9599999999999997" ry="1.9599999999999997"/>
    <ellipse  transform="translate(-36.54756439136894,-33.341757882368) rotate(-0.0)" rx="1.3719999999999997" ry="1.3719999999999997"/>
    <ellipse  transform="translate(-36.54756439136894,-33.341757882368) rotate(-0.0)" rx="0.9603999999999997" ry="0.9603999999999997"/>
    <ellipse  transform="translate(-36.54756439136894,-33.341757882368) rotate(-0.0)" rx="0.6722799999999998" ry="0.6722799999999998"/>
    <rect  transform="translate(-38.4,-22.4) rotate(-0.0)" width="12.8" height="12.8"/>
    <ellipse  transform="translate(-30.645230102932,-15.131932721152001) rotate(-0.0)" rx="2.8" ry="2.8"/>
    <ellipse  transform="translate(-30.645230102932,-15.131932721152001) rotate(-0.0)" rx="1.9599999999999997" ry="1.9599999999999997"/>
    <ellipse  transform="translate(-30.645230102932,-15.131932721152001) rotate(-0.0)" rx="1.3719999999999997" ry="1.3719999999999997"/>
    <ellipse  transform="translate(-30.645230102932,-15.131932721152001) rotate(-0.0)" rx="0.9603999999999997" ry="0.9603999999999997"/>
    <ellipse  transform="translate(-30.645230102932,-15.131932721152001) rotate(-0.0)" rx="0.6722799999999998" ry="0.6722799999999998"/>
    <rect  transform="translate(-38.4,-6.4) rotate(-0.0)" width="12.8" height="12.8"/>
    <ellipse  transform="translate(-30.38721352546899,3.3371135999999995) rotate(-0.0)" rx="2.8" ry="2.8"/>
    <ellipse  transform="translate(-30.38721352546899,3.3371135999999995) rotate(-0.0)" rx="1.9599999999999997" ry="1.9599999999999997"/>
    <ellipse  transform="translate(-30.38721352546899,3.3371135999999995) rotate(-0.0)" rx="1.3719999999999997" ry="1.3719999999999997"/>
    <ellipse  transform="translate(-30.38721352546899,3.3371135999999995) rotate(-0.0)" rx="0.9603999999999997" ry="0.9603999999999997"/>
    <ellipse  transform="translate(-30.38721352546899,3.3371135999999995) rotate(-0.0)" rx="0.6722799999999998" ry="0.6722799999999998"/>
    <rect  transform="translate(-38.4,9.6) rotate(-0.0)" width="12.8" height="12.8"/>
    <ellipse  transform="translate(-29.985645774173967,18.532967022591997) rotate(-0.0)" rx="2.8" ry="2.8"/>
    <ellipse  transform="translate(-29.985645774173967,18.532967022591997) rotate(-0.0)" rx="1.9599999999999997" ry="1.9599999999999997"/>
    <ellipse  transform="translate(-29.985645774173967,18.532967022591997) rotate(-0.0)" rx="1.3719999999999997" ry="1.3719999999999997"/>
    <ellipse  transform="translate(-29.985645774173967,18.532967022591997) rotate(-0.0)" rx="0.9603999999999997" ry="0.9603999999999997"/>
    <ellipse  transform="translate(-29.985645774173967,18.532967022591997) rotate(-0.0)" rx="0.6722799999999998" ry="0.6722799999999998"/>
    <rect  transform="translate(-38.4,25.6) rotate(-0.0)" width="12.8" height="12.8"/>
    <ellipse  transform="translate(-28.804660886821413,32.435318423552) rotate(-0.0)" rx="2.8" ry="2.8"/>
    <ellipse  transform="translate(-28.804660886821413,32.435318423552) rotate(-0.0)" rx="1.9599999999999997" ry="1.9599999999999997"/>
    <ellipse  transform="translate(-28.804660886821413,32.435318423552) rotate(-0.0)" rx="1.3719999999999997" ry="1.3719999999999997"/>
    <ellipse  transform="translate(-28.804660886821413,32.435318423552) rotate(-0.0)" rx="0.9603999999999997" ry="0.9603999999999997"/>
    <ellipse  transform="translate(-28.804660886821413,32.435318423552) rotate(-0.0)" rx="0.6722799999999998" ry="0.6722799999999998"/>
    <rect  transform="translate(-38.4,41.6) rotate(-0.0)" width="12.8" height="12.8"/>
    <ellipse  transform="translate(-31.04276200927305,46.753210564608004) rotate(-0.0)" rx="2.8" ry="2.8"/>
    <ellipse  transform="translate(-31.04276200927305,46.753210564608004) rotate(-0.0)" rx="1.9599999999999997" ry="1.9599999999999997"/>
    <ellipse  transform="translate(-31.04276200927305,46.753210564608004) rotate(-0.0)" rx="1.3719999999999997" ry="1.3719999999999997"/>
    <ellipse  transform="translate(-31.04276200927305,46.753210564608004) rotate(-0.0)" rx="0.9603999999999997" ry="0.9603999999999997"/>
    <ellipse  transform="translate(-31.04276200927305,46.753210564608004) rotate(-0.0)" rx="0.6722799999999998" ry="0.6722799999999998"/>
    <rect  transform="translate(-38.4,57.6) rotate(-0.0)" width="12.8" height="12.8"/>
    <ellipse  transform="translate(-34.259282831988195,63.417298419712) rotate(-0.0)" rx="2.8" ry="2.8"/>
    <ellipse  transform="translate(-34.259282831988195,63.417298419712) rotate(-0.0)" rx="1.9599999999999997" ry="1.9599999999999997"/>
    <ellipse  transform="translate(-34.259282831988195,63.417298419712) rotate(-0.0)" rx="1.3719999999999997" ry="1.3719999999999997"/>
    <ellipse  transform="translate(-34.259282831988195,63.417298419712) rotate(-0.0)" rx="0.9603999999999997" ry="0.9603999999999997"/>
    <ellipse  transform="translate(-34.259282831988195,63.417298419712) rotate(-0.0)" rx="0.6722799999999998" ry="0.6722799999999998"/>
    <rect  transform="translate(-38.4,73.6) rotate(-0.0)" width="12.8" height="12.8"/>
    <ellipse  transform="translate(-31.071726997421262,80.594432) rotate(-0.0)" rx="2.8" ry="2.8"/>
    <ellipse  transform="translate(-31.071726997421262,80.594432) rotate(-0.0)" rx="1.9599999999999997" ry="1.9599999999999997"/>
    <ellipse  transform="translate(-31.071726997421262,80.594432) rotate(-0.0)" rx="1.3719999999999997" ry="1.3719999999999997"/>
    <ellipse  transform="translate(-31.071726997421262,80.594432) rotate(-0.0)" rx="0.9603999999999997" ry="0.9603999999999997"/>
    <ellipse  transform="translate(-31.071726997421262,80.594432) rotate(-0.0)" rx="0.6722799999999998" ry="0.6722799999999998"/>
    <rect  transform="translate(-22.4,-86.4) rotate(-0.0)" width="12.8" height="12.8"/>
    <ellipse  transform="translate(-15.372944549104925,-81.022976) rotate(-0.0)" rx="2.8" ry="2.8"/>
    <ellipse  transform="translate(-15.372944549104925,-81.022976) rotate(-0.0)" rx="1.9599999999999997" ry="1.9599999999999997"/>
    <ellipse  transform="translate(-15.372944549104925,-81.022976) rotate(-0.0)" rx="1.3719999999999997" ry="1.3719999999999997"/>
    <ellipse  transform="translate(-15.372944549104925,-81.022976) rotate(-0.0)" rx="0.9603999999999997" ry="0.9603999999999997"/>
    <ellipse  transform="translate(-15.372944549104925,-81.022976) rotate(-0.0)" rx="0.6722799999999998" ry="0.6722799999999998"/>
    <rect  transform="translate(-22.4,-70.4) rotate(-0.0)" width="12.8" height="12.8"/>
    <ellipse  transform="translate(-13.597056136179678,-63.685704024064) rotate(-0.0)" rx="2.8" ry="2.8"/>
    <ellipse  transform="translate(-13.597056136179678,-63.685704024064) rotate(-0.0)" rx="1.9599999999999997" ry="1.9599999999999997"/>
    <ellipse  transform="translate(-13.597056136179678,-63.685704024064) rotate(-0.0)" rx="1.3719999999999997" ry="1.3719999999999997"/>
    <ellipse  transform="translate(-13.597056136179678,-63.685704024064) rotate(-0.0)" rx="0.9603999999999997" ry="0.9603999999999997"/>
    <ellipse  transform="translate(-13.597056136179678,-63.685704024064) rotate(-0.0)" rx="0.6722799999999998" ry="0.6722799999999998"/>
    <rect  transform="translate(-22.4,-54.4) rotate(-0.0)" width="12.8" height="12.8"/>
    <ellipse  transform="translate(-18.739219676791556,-49.217593442304) rotate(-0.0)" rx="2.8" ry="2.8"/>
    <ellipse  transform="translate(-18.739219676791556,-49.217593442304) rotate(-0.0)" rx="1.9599999999999997" ry="1.9599999999999997"/>
    <ellipse  transform="translate(-18.739219676791556,-49.217593442304) rotate(-0.0)" rx="1.3719999999999997" ry="1.3719999999999997"/>
    <ellipse  transform="translate(-18.739219676791556,-49.217593442304) rotate(-0.0)" rx="0.9603999999999997" ry="0.9603999999999997"/>
    <ellipse  transform="translate(-18.739219676791556,-49.217593442304) rotate(-0.0)" rx="0.6722799999999998" ry="0.6722799999999998"/>
    <rect  transform="translate(-22.4,-38.4) rotate(-0.0)" width="12.8" height="12.8"/>
    <ellipse  transform="translate(-14.962888464639281,-32.804546183168) rotate(-0.0)" rx="2.8" ry="2.8"/>
    <ellipse  transform="translate(-14.962888464639281,-32.804546183168) rotate(-0.0)" rx="1.9599999999999997" ry="1.9599999999999997"/>
    <ellipse  transform="translate(-14.962888464639281,-32.804546183168) rotate(-0.0)" rx="1.3719999999999997" ry="1.3719999999999997"/>
    <ellipse  transform="translate(-14.962888464639281,-32.804546183168) rotate(-0.0)" rx="0.9603999999999997" ry="0.9603999999999997"/>
    <ellipse  transform="translate(-14.962888464639281,-32.804546183168) rotate(-0.0)" rx="0.6722799999999998" ry="0.6722799999999998"/>
    <rect  transform="translate(-22.4,-22.4) rotate(-0.0)" width="12.8" height="12.8"/>
    <ellipse  transform="translate(-12.214043397273013,-15.48862849024) rotate(-0.0)" rx="2.8" ry="2.8"/>
    <ellipse  transform="translate(-12.214043397273013,-15.48862849024) rotate(-0.0)" rx="1.9599999999999997" ry="1.9599999999999997"/>
    <ellipse  transform="translate(-12.214043397273013,-15.48862849024) rotate(-0.0)" rx="1.3719999999999997" ry="1.3719999999999997"/>
    <ellipse  transform="translate(-12.214043397273013,-15.48862849024) rotate(-0.0)" rx="0.9603999999999997" ry="0.9603999999999997"/>
    <ellipse  transform="translate(-12.214043397273013,-15.48862849024) rotate(-0.0)" rx="0.6722799999999998" ry="0.6722799999999998"/>
    <rect  transform="translate(-22.4,-6.4) rotate(-0.0)" width="12.8" height="12.8"/>
    <ellipse  transform="translate(-19.66408092571556,-1.6902143999999995) rotate(-0.0)" rx="2.8" ry="2.8"/>
    <ellipse  transform="translate(-19.66408092571556,-1.6902143999999995) rotate(-0.0)" rx="1.9599999999999997" ry="1.9599999999999997"/>
    <ellipse  transform="translate(-19.66408092571556,-1.6902143999999995) rotate(-0.0)" rx="1.3719999999999997" ry="1.3719999999999997"/>
    <ellipse  transform="translate(-19.66408092571556,-1.6902143999999995) rotate(-0.0)" rx="0.9603999999999997" ry="0.9603999999999997"/>
    <ellipse  transform="translate(-19.66408092571556,-1.6902143999999995) rotate(-0.0)" rx="0.6722799999999998" ry="0.6722799999999998"/>
    <rect  transform="translate(-22.4,9.6) rotate(-0.0)" width="12.8" height="12.8"/>
    <ellipse  transform="translate(-17.880051237459252,13.936238854144001) rotate(-0.0)" rx="2.8" ry="2.8"/>
    <ellipse  transform="translate(-17.880051237459252,13.936238854144001) rotate(-0.0)" rx="1.9599999999999997" ry="1.9599999999999997"/>
    <ellipse  transform="translate(-17.880051237459252,13.936238854144001) rotate(-0.0)" rx="1.3719999999999997" ry="1.3719999999999997"/>
    <ellipse  transform="translate(-17.880051237459252,13.936238854144001) rotate(-0.0)" rx="0.9603999999999997" ry="0.9603999999999997"/>
    <ellipse  transform="translate(-17.880051237459252,13.936238854144001) rotate(-0.0)" rx="0.6722799999999998" ry="0.6722799999999998"/>
    <rect  transform="translate(-22.4,25.6) rotate(-0.0)" width="12.8" height="12.8"/>
    <ellipse  transform="translate(-15.612537301135037,30.27535609856) rotate(-0.0)" rx="2.8" ry="2.8"/>
    <ellipse  transform="translate(-15.612537301135037,30.27535609856) rotate(-0.0)" rx="1.9599999999999997" ry="1.9599999999999997"/>
    <ellipse  transform="translate(-15.612537301135037,30.27535609856) rotate(-0.0)" rx="1.3719999999999997" ry="1.3719999999999997"/>
    <ellipse  transform="translate(-15.612537301135037,30.27535609856) rotate(-0.0)" rx="0.9603999999999997" ry="0.9603999999999997"/>
    <ellipse  transform="translate(-15.612537301135037,30.27535609856) rotate(-0.0)" rx="0.6722799999999998" ry="0.6722799999999998"/>
    <rect  transform="translate(-22.4,41.6) rotate(-0.0)" width="12.8" height="12.8"/>
    <ellipse  transform="translate(-15.525250803275267,45.747700137984) rotate(-0.0)" rx="2.8" ry="2.8"/>
    <ellipse  transform="translate(-15.525250803275267,45.747700137984) rotate(-0.0)" rx="1.9599999999999997" ry="1.9599999999999997"/>
    <ellipse  transform="translate(-15.525250803275267,45.747700137984) rotate(-0.0)" rx="1.3719999999999997" ry="1.3719999999999997"/>
    <ellipse  transform="translate(-15.525250803275267,45.747700137984) rotate(-0.0)" rx="0.9603999999999997" ry="0.9603999999999997"/>
    <ellipse  transform="translate(-15.525250803275267,45.747700137984) rotate(-0.0)" rx="0.6722799999999998" ry="0.6722799999999998"/>
    <rect  transform="translate(-22.4,57.6) rotate(-0.0)" width="12.8" height="12.8"/>
    <ellipse  transform="translate(-18.174056954908824,65.592317181952) rotate(-0.0)" rx="2.8" ry="2.8"/>
    <ellipse  transform="translate(-18.174056954908824,65.592317181952) rotate(-0.0)" rx="1.9599999999999997" ry="1.9599999999999997"/>
    <ellipse  transform="translate(-18.174056954908824,65.592317181952) rotate(-0.0)" rx="1.3719999999999997" ry="1.3719999999999997"/>
    <ellipse  transform="translate(-18.174056954908824,65.592317181952) rotate(-0.0)" rx="0.9603999999999997" ry="0.9603999999999997"/>
    <ellipse  transform="translate(-18.174056954908824,65.592317181952) rotate(-0.0)" rx="0.6722799999999998" ry="0.6722799999999998"/>
    <rect  transform="translate(-22.4,73.6) rotate(-0.0)" width="12.8" height="12.8"/>
    <ellipse  transform="translate(-15.661434831779566,81.6902144) rotate(-0.0)" rx="2.8" ry="2.8"/>
    <ellipse  transform="translate(-15.661434831779566,81.6902144) rotate(-0.0)" rx="1.9599999999999997" ry="1.9599999999999997"/>
    <ellipse  transform="translate(-15.661434831779566,81.6902144) rotate(-0.0)" rx="1.3719999999999997" ry="1.3719999999999997"/>
    <ellipse  transform="translate(-15.661434831779566,81.6902144) rotate(-0.0)" rx="0.9603999999999997" ry="0.9603999999999997"/>
    <ellipse  transform="translate(-15.661434831779566,81.6902144) rotate(-0.0)" rx="0.6722799999999998" ry="0.6722799999999998"/>
    <rect  transform="translate(-6.4,-86.4) rotate(-0.0)" width="12.8" height="12.8"/>
    <ellipse  transform="translate(1.6773169216878339,-80.0) rotate(-0.0)" rx="2.8" ry="2.8"/>
    <ellipse  transform="translate(1.6773169216878339,-80.0) rotate(-0.0)" rx="1.9599999999999997" ry="1.9599999999999997"/>
    <ellipse  transform="translate(1.6773169216878339,-80.0) rotate(-0.0)" rx="1.3719999999999997" ry="1.3719999999999997"/>
    <ellipse  transform="translate(1.6773169216878339,-80.0) rotate(-0.0)" rx="0.9603999999999997" ry="0.9603999999999997"/>
    <ellipse  transform="translate(1.6773169216878339,-80.0) rotate(-0.0)" rx="0.6722799999999998" ry="0.6722799999999998"/>
    <rect  transform="translate(-6.4,-70.4) rotate(-0.0)" width="12.8" height="12.8"/>
    <ellipse  transform="translate(3.1444595268819766,-62.977024) rotate(-0.0)" rx="2.8" ry="2.8"/>
    <ellipse  transform="translate(3.1444595268819766,-62.977024) rotate(-0.0)" rx="1.9599999999999997" ry="1.9599999999999997"/>
    <ellipse  transform="translate(3.1444595268819766,-62.977024) rotate(-0.0)" rx="1.3719999999999997" ry="1.3719999999999997"/>
    <ellipse  transform="translate(3.1444595268819766,-62.977024) rotate(-0.0)" rx="0.9603999999999997" ry="0.9603999999999997"/>
    <ellipse  transform="translate(3.1444595268819766,-62.977024) rotate(-0.0)" rx="0.6722799999999998" ry="0.6722799999999998"/>
    <rect  transform="translate(-6.4,-54.4) rotate(-0.0)" width="12.8" height="12.8"/>
    <ellipse  transform="translate(-1.2045255906666386,-51.3371136) rotate(-0.0)" rx="2.8" ry="2.8"/>
    <ellipse  transform="translate(-1.2045255906666386,-51.3371136) rotate(-0.0)" rx="1.9599999999999997" ry="1.9599999999999997"/>
    <ellipse  transform="translate(-1.2045255906666386,-51.3371136) rotate(-0.0)" rx="1.3719999999999997" ry="1.3719999999999997"/>
    <ellipse  transform="translate(-1.2045255906666386,-51.3371136) rotate(-0.0)" rx="0.9603999999999997" ry="0.9603999999999997"/>
    <ellipse  transform="translate(-1.2045255906666386,-51.3371136) rotate(-0.0)" rx="0.6722799999999998" ry="0.6722799999999998"/>
    <rect  transform="translate(-6.4,-38.4) rotate(-0.0)" width="12.8" height="12.8"/>
    <ellipse  transform="translate(1.9394185877389765,-30.0342272) rotate(-0.0)" rx="2.8" ry="2.8"/>
    <ellipse  transform="translate(1.9394185877389765,-30.0342272) rotate(-0.0)" rx="1.9599999999999997" ry="1.9599999999999997"/>
    <ellipse  transform="translate(1.9394185877389765,-30.0342272) rotate(-0.0)" rx="1.3719999999999997" ry="1.3719999999999997"/>
    <ellipse  transform="translate(1.9394185877389765,-30.0342272) rotate(-0.0)" rx="0.9603999999999997" ry="0.9603999999999997"/>
    <ellipse  transform="translate(1.9394185877389765,-30.0342272) rotate(-0.0)" rx="0.6722799999999998" ry="0.6722799999999998"/>
    <rect  transform="translate(-6.4,-22.4) rotate(-0.0)" width="12.8" height="12.8"/>
    <ellipse  transform="translate(0.8964746672376789,-16.3336192) rotate(-0.0)" rx="2.8" ry="2.8"/>
    <ellipse  transform="translate(0.8964746672376789,-16.3336192) rotate(-0.0)" rx="1.9599999999999997" ry="1.9599999999999997"/>
    <ellipse  transform="translate(0.8964746672376789,-16.3336192) rotate(-0.0)" rx="1.3719999999999997" ry="1.3719999999999997"/>
    <ellipse  transform="translate(0.8964746672376789,-16.3336192) rotate(-0.0)" rx="0.9603999999999997" ry="0.9603999999999997"/>
    <ellipse  transform="translate(0.8964746672376789,-16.3336192) rotate(-0.0)" rx="0.6722799999999998" ry="0.6722799999999998"/>
    <rect  transform="translate(-6.4,-6.4) rotate(-0.0)" width="12.8" height="12.8"/>
    <ellipse  transform="translate(-1.8613656744872662,0.0) rotate(-0.0)" rx="2.8" ry="2.8"/>
    <ellipse  transform="translate(-1.8613656744872662,0.0) rotate(-0.0)" rx="1.9599999999999997" ry="1.9599999999999997"/>
    <ellipse  transform="translate(-1.8613656744872662,0.0) rotate(-0.0)" rx="1.3719999999999997" ry="1.3719999999999997"/>
    <ellipse  transform="translate(-1.8613656744872662,0.0) rotate(-0.0)" rx="0.9603999999999997" ry="0.9603999999999997"/>
    <ellipse  transform="translate(-1.8613656744872662,0.0) rotate(-0.0)" rx="0.6722799999999998" ry="0.6722799999999998"/>
    <rect  transform="translate(-6.4,9.6) rotate(-0.0)" width="12.8" height="12.8"/>
    <ellipse  transform="translate(-1.7053327613902916,14.977024) rotate(-0.0)" rx="2.8" ry="2.8"/>
    <ellipse  transform="translate(-1.7053327613902916,14.977024) rotate(-0.0)" rx="1.9599999999999997" ry="1.9599999999999997"/>
    <ellipse  transform="translate(-1.7053327613902916,14.977024) rotate(-0.0)" rx="1.3719999999999997" ry="1.3719999999999997"/>
    <ellipse  transform="translate(-1.7053327613902916,14.977024) rotate(-0.0)" rx="0.9603999999999997" ry="0.9603999999999997"/>
    <ellipse  transform="translate(-1.7053327613902916,14.977024) rotate(-0.0)" rx="0.6722799999999998" ry="0.6722799999999998"/>
    <rect  transform="translate(-6.4,25.6) rotate(-0.0)" width="12.8" height="12.8"/>
    <ellipse  transform="translate(1.3292983060634862,31.405568) rotate(-0.0)" rx="2.8" ry="2.8"/>
    <ellipse  transform="translate(1.3292983060634862,31.405568) rotate(-0.0)" rx="1.9599999999999997" ry="1.9599999999999997"/>
    <ellipse  transform="translate(1.3292983060634862,31.405568) rotate(-0.0)" rx="1.3719999999999997" ry="1.3719999999999997"/>
    <ellipse  transform="translate(1.3292983060634862,31.405568) rotate(-0.0)" rx="0.9603999999999997" ry="0.9603999999999997"/>
    <ellipse  transform="translate(1.3292983060634862,31.405568) rotate(-0.0)" rx="0.6722799999999998" ry="0.6722799999999998"/>
    <rect  transform="translate(-6.4,41.6) rotate(-0.0)" width="12.8" height="12.8"/>
    <ellipse  transform="translate(2.8764004150655103,51.3371136) rotate(-0.0)" rx="2.8" ry="2.8"/>
    <ellipse  transform="translate(2.8764004150655103,51.3371136) rotate(-0.0)" rx="1.9599999999999997" ry="1.9599999999999997"/>
    <ellipse  transform="translate(2.8764004150655103,51.3371136) rotate(-0.0)" rx="1.3719999999999997" ry="1.3719999999999997"/>
    <ellipse  transform="translate(2.8764004150655103,51.3371136) rotate(-0.0)" rx="0.9603999999999997" ry="0.9603999999999997"/>
    <ellipse  transform="translate(2.8764004150655103,51.3371136) rotate(-0.0)" rx="0.6722799999999998" ry="0.6722799999999998"/>
    <rect  transform="translate(-6.4,57.6) rotate(-0.0)" width="12.8" height="12.8"/>
    <ellipse  transform="translate(-1.537299850651947,62.3097856) rotate(-0.0)" rx="2.8" ry="2.8"/>
    <ellipse  transform="translate(-1.537299850651947,62.3097856) rotate(-0.0)" rx="1.9599999999999997" ry="1.9599999999999997"/>
    <ellipse  transform="translate(-1.537299850651947,62.3097856) rotate(-0.0)" rx="1.3719999999999997" ry="1.3719999999999997"/>
    <ellipse  transform="translate(-1.537299850651947,62.3097856) rotate(-0.0)" rx="0.9603999999999997" ry="0.9603999999999997"/>
    <ellipse  transform="translate(-1.537299850651947,62.3097856) rotate(-0.0)" rx="0.6722799999999998" ry="0.6722799999999998"/>
    <rect  transform="translate(-6.4,73.6) rotate(-0.0)" width="12.8" height="12.8"/>
    <ellipse  transform="translate(-3.318149638877489,80.0) rotate(-0.0)" rx="2.8" ry="2.8"/>
    <ellipse  transform="translate(-3.318149638877489,80.0) rotate(-0.0)" rx="1.9599999999999997" ry="1.9599999999999997"/>
    <ellipse  transform="translate(-3.318149638877489,80.0) rotate(-0.0)" rx="1.3719999999999997" ry="1.3719999999999997"/>
    <ellipse  transform="translate(-3.318149638877489,80.0) rotate(-0.0)" rx="0.9603999999999997" ry="0.9603999999999997"/>
    <ellipse  transform="translate(-3.318149638877489,80.0) rotate(-0.0)" rx="0.6722799999999998" ry="0.6722799999999998"/>
    <rect  transform="translate(9.6,-86.4) rotate(-0.0)" width="12.8" height="12.8"/>
    <ellipse  transform="translate(14.905893435129169,-78.977024) rotate(-0.0)" rx="2.8" ry="2.8"/>
    <ellipse  transform="translate(14.905893435129169,-78.977024) rotate(-0.0)" rx="1.9599999999999997" ry="1.9599999999999997"/>
    <ellipse  transform="translate(14.905893435129169,-78.977024) rotate(-0.0)" rx="1.3719999999999997" ry="1.3719999999999997"/>
    <ellipse  transform="translate(14.905893435129169,-78.977024) rotate(-0.0)" rx="0.9603999999999997" ry="0.9603999999999997"/>
    <ellipse  transform="translate(14.905893435129169,-78.977024) rotate(-0.0)" rx="0.6722799999999998" ry="0.6722799999999998"/>
    <rect  transform="translate(9.6,-70.4) rotate(-0.0)" width="12.8" height="12.8"/>
    <ellipse  transform="translate(17.48188279623154,-62.289181278208) rotate(-0.0)" rx="2.8" ry="2.8"/>
    <ellipse  transform="translate(17.48188279623154,-62.289181278208) rotate(-0.0)" rx="1.9599999999999997" ry="1.9599999999999997"/>
    <ellipse  transform="translate(17.48188279623154,-62.289181278208) rotate(-0.0)" rx="1.3719999999999997" ry="1.3719999999999997"/>
    <ellipse  transform="translate(17.48188279623154,-62.289181278208) rotate(-0.0)" rx="0.9603999999999997" ry="0.9603999999999997"/>
    <ellipse  transform="translate(17.48188279623154,-62.289181278208) rotate(-0.0)" rx="0.6722799999999998" ry="0.6722799999999998"/>
    <rect  transform="translate(9.6,-54.4) rotate(-0.0)" width="12.8" height="12.8"/>
    <ellipse  transform="translate(16.34119661729555,-50.183440859136) rotate(-0.0)" rx="2.8" ry="2.8"/>
    <ellipse  transform="translate(16.34119661729555,-50.183440859136) rotate(-0.0)" rx="1.9599999999999997" ry="1.9599999999999997"/>
    <ellipse  transform="translate(16.34119661729555,-50.183440859136) rotate(-0.0)" rx="1.3719999999999997" ry="1.3719999999999997"/>
    <ellipse  transform="translate(16.34119661729555,-50.183440859136) rotate(-0.0)" rx="0.9603999999999997" ry="0.9603999999999997"/>
    <ellipse  transform="translate(16.34119661729555,-50.183440859136) rotate(-0.0)" rx="0.6722799999999998" ry="0.6722799999999998"/>
    <rect  transform="translate(9.6,-38.4) rotate(-0.0)" width="12.8" height="12.8"/>
    <ellipse  transform="translate(19.071831957764093,-34.412839337983996) rotate(-0.0)" rx="2.8" ry="2.8"/>
    <ellipse  transform="translate(19.071831957764093,-34.412839337983996) rotate(-0.0)" rx="1.9599999999999997" ry="1.9599999999999997"/>
    <ellipse  transform="translate(19.071831957764093,-34.412839337983996) rotate(-0.0)" rx="1.3719999999999997" ry="1.3719999999999997"/>
    <ellipse  transform="translate(19.071831957764093,-34.412839337983996) rotate(-0.0)" rx="0.9603999999999997" ry="0.9603999999999997"/>
    <ellipse  transform="translate(19.071831957764093,-34.412839337983996) rotate(-0.0)" rx="0.6722799999999998" ry="0.6722799999999998"/>
    <rect  transform="translate(9.6,-22.4) rotate(-0.0)" width="12.8" height="12.8"/>
    <ellipse  transform="translate(18.380717052581524,-16.078573993984) rotate(-0.0)" rx="2.8" ry="2.8"/>
    <ellipse  transform="translate(18.380717052581524,-16.078573993984) rotate(-0.0)" rx="1.9599999999999997" ry="1.9599999999999997"/>
    <ellipse  transform="translate(18.380717052581524,-16.078573993984) rotate(-0.0)" rx="1.3719999999999997" ry="1.3719999999999997"/>
    <ellipse  transform="translate(18.380717052581524,-16.078573993984) rotate(-0.0)" rx="0.9603999999999997" ry="0.9603999999999997"/>
    <ellipse  transform="translate(18.380717052581524,-16.078573993984) rotate(-0.0)" rx="0.6722799999999998" ry="0.6722799999999998"/>
    <rect  transform="translate(9.6,-6.4) rotate(-0.0)" width="12.8" height="12.8"/>
    <ellipse  transform="translate(16.814143430997113,-1.0229760000000008) rotate(-0.0)" rx="2.8" ry="2.8"/>
    <ellipse  transform="translate(16.814143430997113,-1.0229760000000008) rotate(-0.0)" rx="1.9599999999999997" ry="1.9599999999999997"/>
    <ellipse  transform="translate(16.814143430997113,-1.0229760000000008) rotate(-0.0)" rx="1.3719999999999997" ry="1.3719999999999997"/>
    <ellipse  transform="translate(16.814143430997113,-1.0229760000000008) rotate(-0.0)" rx="0.9603999999999997" ry="0.9603999999999997"/>
    <ellipse  transform="translate(16.814143430997113,-1.0229760000000008) rotate(-0.0)" rx="0.6722799999999998" ry="0.6722799999999998"/>
    <rect  transform="translate(9.6,9.6) rotate(-0.0)" width="12.8" height="12.8"/>
    <ellipse  transform="translate(14.874286146960227,13.325456048128) rotate(-0.0)" rx="2.8" ry="2.8"/>
    <ellipse  transform="translate(14.874286146960227,13.325456048128) rotate(-0.0)" rx="1.9599999999999997" ry="1.9599999999999997"/>
    <ellipse  transform="translate(14.874286146960227,13.325456048128) rotate(-0.0)" rx="1.3719999999999997" ry="1.3719999999999997"/>
    <ellipse  transform="translate(14.874286146960227,13.325456048128) rotate(-0.0)" rx="0.9603999999999997" ry="0.9603999999999997"/>
    <ellipse  transform="translate(14.874286146960227,13.325456048128) rotate(-0.0)" rx="0.6722799999999998" ry="0.6722799999999998"/>
    <rect  transform="translate(9.6,25.6) rotate(-0.0)" width="12.8" height="12.8"/>
    <ellipse  transform="translate(16.314342634637928,30.382592) rotate(-0.0)" rx="2.8" ry="2.8"/>
    <ellipse  transform="translate(16.314342634637928,30.382592) rotate(-0.0)" rx="1.9599999999999997" ry="1.9599999999999997"/>
    <ellipse  transform="translate(16.314342634637928,30.382592) rotate(-0.0)" rx="1.3719999999999997" ry="1.3719999999999997"/>
    <ellipse  transform="translate(16.314342634637928,30.382592) rotate(-0.0)" rx="0.9603999999999997" ry="0.9603999999999997"/>
    <ellipse  transform="translate(16.314342634637928,30.382592) rotate(-0.0)" rx="0.6722799999999998" ry="0.6722799999999998"/>
    <rect  transform="translate(9.6,41.6) rotate(-0.0)" width="12.8" height="12.8"/>
    <ellipse  transform="translate(18.30410851307298,49.777595940864) rotate(-0.0)" rx="2.8" ry="2.8"/>
    <ellipse  transform="translate(18.30410851307298,49.777595940864) rotate(-0.0)" rx="1.9599999999999997" ry="1.9599999999999997"/>
    <ellipse  transform="translate(18.30410851307298,49.777595940864) rotate(-0.0)" rx="1.3719999999999997" ry="1.3719999999999997"/>
    <ellipse  transform="translate(18.30410851307298,49.777595940864) rotate(-0.0)" rx="0.9603999999999997" ry="0.9603999999999997"/>
    <ellipse  transform="translate(18.30410851307298,49.777595940864) rotate(-0.0)" rx="0.6722799999999998" ry="0.6722799999999998"/>
    <rect  transform="translate(9.6,57.6) rotate(-0.0)" width="12.8" height="12.8"/>
    <ellipse  transform="translate(14.292717562790713,64.846504787968) rotate(-0.0)" rx="2.8" ry="2.8"/>
    <ellipse  transform="translate(14.292717562790713,64.846504787968) rotate(-0.0)" rx="1.9599999999999997" ry="1.9599999999999997"/>
    <ellipse  transform="translate(14.292717562790713,64.846504787968) rotate(-0.0)" rx="1.3719999999999997" ry="1.3719999999999997"/>
    <ellipse  transform="translate(14.292717562790713,64.846504787968) rotate(-0.0)" rx="0.9603999999999997" ry="0.9603999999999997"/>
    <ellipse  transform="translate(14.292717562790713,64.846504787968) rotate(-0.0)" rx="0.6722799999999998" ry="0.6722799999999998"/>
    <rect  transform="translate(9.6,73.6) rotate(-0.0)" width="12.8" height="12.8"/>
    <ellipse  transform="translate(14.553470212795858,79.6663808) rotate(-0.0)" rx="2.8" ry="2.8"/>
    <ellipse  transform="translate(14.553470212795858,79.6663808) rotate(-0.0)" rx="1.9599999999999997" ry="1.9599999999999997"/>
    <ellipse  transform="translate(14.553470212795858,79.6663808) rotate(-0.0)" rx="1.3719999999999997" ry="1.3719999999999997"/>
    <ellipse  transform="translate(14.553470212795858,79.6663808) rotate(-0.0)" rx="0.9603999999999997" ry="0.9603999999999997"/>
    <ellipse  transform="translate(14.553470212795858,79.6663808) rotate(-0.0)" rx="0.6722799999999998" ry="0.6722799999999998"/>
    <rect  transform="translate(25.6,-86.4) rotate(-0.0)" width="12.8" height="12.8"/>
    <ellipse  transform="translate(33.86935385072895,-83.3371136) rotate(-0.0)" rx="2.8" ry="2.8"/>
    <ellipse  transform="translate(33.86935385072895,-83.3371136) rotate(-0.0)" rx="1.9599999999999997" ry="1.9599999999999997"/>
    <ellipse  transform="translate(33.86935385072895,-83.3371136) rotate(-0.0)" rx="1.3719999999999997" ry="1.3719999999999997"/>
    <ellipse  transform="translate(33.86935385072895,-83.3371136) rotate(-0.0)" rx="0.9603999999999997" ry="0.9603999999999997"/>
    <ellipse  transform="translate(33.86935385072895,-83.3371136) rotate(-0.0)" rx="0.6722799999999998" ry="0.6722799999999998"/>
    <rect  transform="translate(25.6,-70.4) rotate(-0.0)" width="12.8" height="12.8"/>
    <ellipse  transform="translate(33.12035904626684,-62.958501462015995) rotate(-0.0)" rx="2.8" ry="2.8"/>
    <ellipse  transform="translate(33.12035904626684,-62.958501462015995) rotate(-0.0)" rx="1.9599999999999997" ry="1.9599999999999997"/>
    <ellipse  transform="translate(33.12035904626684,-62.958501462015995) rotate(-0.0)" rx="1.3719999999999997" ry="1.3719999999999997"/>
    <ellipse  transform="translate(33.12035904626684,-62.958501462015995) rotate(-0.0)" rx="0.9603999999999997" ry="0.9603999999999997"/>
    <ellipse  transform="translate(33.12035904626684,-62.958501462015995) rotate(-0.0)" rx="0.6722799999999998" ry="0.6722799999999998"/>
    <rect  transform="translate(25.6,-54.4) rotate(-0.0)" width="12.8" height="12.8"/>
    <ellipse  transform="translate(31.2004955676362,-47.093560541184004) rotate(-0.0)" rx="2.8" ry="2.8"/>
    <ellipse  transform="translate(31.2004955676362,-47.093560541184004) rotate(-0.0)" rx="1.9599999999999997" ry="1.9599999999999997"/>
    <ellipse  transform="translate(31.2004955676362,-47.093560541184004) rotate(-0.0)" rx="1.3719999999999997" ry="1.3719999999999997"/>
    <ellipse  transform="translate(31.2004955676362,-47.093560541184004) rotate(-0.0)" rx="0.9603999999999997" ry="0.9603999999999997"/>
    <ellipse  transform="translate(31.2004955676362,-47.093560541184004) rotate(-0.0)" rx="0.6722799999999998" ry="0.6722799999999998"/>
    <rect  transform="translate(25.6,-38.4) rotate(-0.0)" width="12.8" height="12.8"/>
    <ellipse  transform="translate(32.03777439441274,-30.658242117632) rotate(-0.0)" rx="2.8" ry="2.8"/>
    <ellipse  transform="translate(32.03777439441274,-30.658242117632) rotate(-0.0)" rx="1.9599999999999997" ry="1.9599999999999997"/>
    <ellipse  transform="translate(32.03777439441274,-30.658242117632) rotate(-0.0)" rx="1.3719999999999997" ry="1.3719999999999997"/>
    <ellipse  transform="translate(32.03777439441274,-30.658242117632) rotate(-0.0)" rx="0.9603999999999997" ry="0.9603999999999997"/>
    <ellipse  transform="translate(32.03777439441274,-30.658242117632) rotate(-0.0)" rx="0.6722799999999998" ry="0.6722799999999998"/>
    <rect  transform="translate(25.6,-22.4) rotate(-0.0)" width="12.8" height="12.8"/>
    <ellipse  transform="translate(30.176789915784312,-13.393875042304003) rotate(-0.0)" rx="2.8" ry="2.8"/>
    <ellipse  transform="translate(30.176789915784312,-13.393875042304003) rotate(-0.0)" rx="1.9599999999999997" ry="1.9599999999999997"/>
    <ellipse  transform="translate(30.176789915784312,-13.393875042304003) rotate(-0.0)" rx="1.3719999999999997" ry="1.3719999999999997"/>
    <ellipse  transform="translate(30.176789915784312,-13.393875042304003) rotate(-0.0)" rx="0.9603999999999997" ry="0.9603999999999997"/>
    <ellipse  transform="translate(30.176789915784312,-13.393875042304003) rotate(-0.0)" rx="0.6722799999999998" ry="0.6722799999999998"/>
    <rect  transform="translate(25.6,-6.4) rotate(-0.0)" width="12.8" height="12.8"/>
    <ellipse  transform="translate(33.556798174647206,1.3713407999999996) rotate(-0.0)" rx="2.8" ry="2.8"/>
    <ellipse  transform="translate(33.556798174647206,1.3713407999999996) rotate(-0.0)" rx="1.9599999999999997" ry="1.9599999999999997"/>
    <ellipse  transform="translate(33.556798174647206,1.3713407999999996) rotate(-0.0)" rx="1.3719999999999997" ry="1.3719999999999997"/>
    <ellipse  transform="translate(33.556798174647206,1.3713407999999996) rotate(-0.0)" rx="0.9603999999999997" ry="0.9603999999999997"/>
    <ellipse  transform="translate(33.556798174647206,1.3713407999999996) rotate(-0.0)" rx="0.6722799999999998" ry="0.6722799999999998"/>
    <rect  transform="translate(25.6,9.6) rotate(-0.0)" width="12.8" height="12.8"/>
    <ellipse  transform="translate(35.424552037282325,17.988471881728) rotate(-0.0)" rx="2.8" ry="2.8"/>
    <ellipse  transform="translate(35.424552037282325,17.988471881728) rotate(-0.0)" rx="1.9599999999999997" ry="1.9599999999999997"/>
    <ellipse  transform="translate(35.424552037282325,17.988471881728) rotate(-0.0)" rx="1.3719999999999997" ry="1.3719999999999997"/>
    <ellipse  transform="translate(35.424552037282325,17.988471881728) rotate(-0.0)" rx="0.9603999999999997" ry="0.9603999999999997"/>
    <ellipse  transform="translate(35.424552037282325,17.988471881728) rotate(-0.0)" rx="0.6722799999999998" ry="0.6722799999999998"/>
    <rect  transform="translate(25.6,25.6) rotate(-0.0)" width="12.8" height="12.8"/>
    <ellipse  transform="translate(31.277687042060048,30.904864047104) rotate(-0.0)" rx="2.8" ry="2.8"/>
    <ellipse  transform="translate(31.277687042060048,30.904864047104) rotate(-0.0)" rx="1.9599999999999997" ry="1.9599999999999997"/>
    <ellipse  transform="translate(31.277687042060048,30.904864047104) rotate(-0.0)" rx="1.3719999999999997" ry="1.3719999999999997"/>
    <ellipse  transform="translate(31.277687042060048,30.904864047104) rotate(-0.0)" rx="0.9603999999999997" ry="0.9603999999999997"/>
    <ellipse  transform="translate(31.277687042060048,30.904864047104) rotate(-0.0)" rx="0.6722799999999998" ry="0.6722799999999998"/>
    <rect  transform="translate(25.6,41.6) rotate(-0.0)" width="12.8" height="12.8"/>
    <ellipse  transform="translate(33.81069368107174,51.402499129344) rotate(-0.0)" rx="2.8" ry="2.8"/>
    <ellipse  transform="translate(33.81069368107174,51.402499129344) rotate(-0.0)" rx="1.9599999999999997" ry="1.9599999999999997"/>
    <ellipse  transform="translate(33.81069368107174,51.402499129344) rotate(-0.0)" rx="1.3719999999999997" ry="1.3719999999999997"/>
    <ellipse  transform="translate(33.81069368107174,51.402499129344) rotate(-0.0)" rx="0.9603999999999997" ry="0.9603999999999997"/>
    <ellipse  transform="translate(33.81069368107174,51.402499129344) rotate(-0.0)" rx="0.6722799999999998" ry="0.6722799999999998"/>
    <rect  transform="translate(25.6,57.6) rotate(-0.0)" width="12.8" height="12.8"/>
    <ellipse  transform="translate(34.52468246012756,61.903940681728) rotate(-0.0)" rx="2.8" ry="2.8"/>
    <ellipse  transform="translate(34.52468246012756,61.903940681728) rotate(-0.0)" rx="1.9599999999999997" ry="1.9599999999999997"/>
    <ellipse  transform="translate(34.52468246012756,61.903940681728) rotate(-0.0)" rx="1.3719999999999997" ry="1.3719999999999997"/>
    <ellipse  transform="translate(34.52468246012756,61.903940681728) rotate(-0.0)" rx="0.9603999999999997" ry="0.9603999999999997"/>
    <ellipse  transform="translate(34.52468246012756,61.903940681728) rotate(-0.0)" rx="0.6722799999999998" ry="0.6722799999999998"/>
    <rect  transform="translate(25.6,73.6) rotate(-0.0)" width="12.8" height="12.8"/>
    <ellipse  transform="translate(35.81934789448243,80.0) rotate(-0.0)" rx="2.8" ry="2.8"/>
    <ellipse  transform="translate(35.81934789448243,80.0) rotate(-0.0)" rx="1.9599999999999997" ry="1.9599999999999997"/>
    <ellipse  transform="translate(35.81934789448243,80.0) rotate(-0.0)" rx="1.3719999999999997" ry="1.3719999999999997"/>
    <ellipse  transform="translate(35.81934789448243,80.0) rotate(-0.0)" rx="0.9603999999999997" ry="0.9603999999999997"/>
    <ellipse  transform="translate(35.81934789448243,80.0) rotate(-0.0)" rx="0.6722799999999998" ry="0.6722799999999998"/>
    <rect  transform="translate(41.6,-86.4) rotate(-0.0)" width="12.8" height="12.8"/>
    <ellipse  transform="translate(49.62917933244948,-76.66288639999999) rotate(-0.0)" rx="2.8" ry="2.8"/>
    <ellipse  transform="translate(49.62917933244948,-76.66288639999999) rotate(-0.0)" rx="1.9599999999999997" ry="1.9599999999999997"/>
    <ellipse  transform="translate(49.62917933244948,-76.66288639999999) rotate(-0.0)" rx="1.3719999999999997" ry="1.3719999999999997"/>
    <ellipse  transform="translate(49.62917933244948,-76.66288639999999) rotate(-0.0)" rx="0.9603999999999997" ry="0.9603999999999997"/>
    <ellipse  transform="translate(49.62917933244948,-76.66288639999999) rotate(-0.0)" rx="0.6722799999999998" ry="0.6722799999999998"/>
    <rect  transform="translate(41.6,-70.4) rotate(-0.0)" width="12.8" height="12.8"/>
    <ellipse  transform="translate(45.888921606725155,-64.83102220288) rotate(-0.0)" rx="2.8" ry="2.8"/>
    <ellipse  transform="translate(45.888921606725155,-64.83102220288) rotate(-0.0)" rx="1.9599999999999997" ry="1.9599999999999997"/>
    <ellipse  transform="translate(45.888921606725155,-64.83102220288) rotate(-0.0)" rx="1.3719999999999997" ry="1.3719999999999997"/>
    <ellipse  transform="translate(45.888921606725155,-64.83102220288) rotate(-0.0)" rx="0.9603999999999997" ry="0.9603999999999997"/>
    <ellipse  transform="translate(45.888921606725155,-64.83102220288) rotate(-0.0)" rx="0.6722799999999998" ry="0.6722799999999998"/>
    <rect  transform="translate(41.6,-54.4) rotate(-0.0)" width="12.8" height="12.8"/>
    <ellipse  transform="translate(48.028196559755386,-49.653765341184) rotate(-0.0)" rx="2.8" ry="2.8"/>
    <ellipse  transform="translate(48.028196559755386,-49.653765341184) rotate(-0.0)" rx="1.9599999999999997" ry="1.9599999999999997"/>
    <ellipse  transform="translate(48.028196559755386,-49.653765341184) rotate(-0.0)" rx="1.3719999999999997" ry="1.3719999999999997"/>
    <ellipse  transform="translate(48.028196559755386,-49.653765341184) rotate(-0.0)" rx="0.9603999999999997" ry="0.9603999999999997"/>
    <ellipse  transform="translate(48.028196559755386,-49.653765341184) rotate(-0.0)" rx="0.6722799999999998" ry="0.6722799999999998"/>
    <rect  transform="translate(41.6,-38.4) rotate(-0.0)" width="12.8" height="12.8"/>
    <ellipse  transform="translate(45.78081915889866,-35.3371136) rotate(-0.0)" rx="2.8" ry="2.8"/>
    <ellipse  transform="translate(45.78081915889866,-35.3371136) rotate(-0.0)" rx="1.9599999999999997" ry="1.9599999999999997"/>
    <ellipse  transform="translate(45.78081915889866,-35.3371136) rotate(-0.0)" rx="1.3719999999999997" ry="1.3719999999999997"/>
    <ellipse  transform="translate(45.78081915889866,-35.3371136) rotate(-0.0)" rx="0.9603999999999997" ry="0.9603999999999997"/>
    <ellipse  transform="translate(45.78081915889866,-35.3371136) rotate(-0.0)" rx="0.6722799999999998" ry="0.6722799999999998"/>
    <rect  transform="translate(41.6,-22.4) rotate(-0.0)" width="12.8" height="12.8"/>
    <ellipse  transform="translate(44.96082028467318,-14.897595940864) rotate(-0.0)" rx="2.8" ry="2.8"/>
    <ellipse  transform="translate(44.96082028467318,-14.897595940864) rotate(-0.0)" rx="1.9599999999999997" ry="1.9599999999999997"/>
    <ellipse  transform="translate(44.96082028467318,-14.897595940864) rotate(-0.0)" rx="1.3719999999999997" ry="1.3719999999999997"/>
    <ellipse  transform="translate(44.96082028467318,-14.897595940864) rotate(-0.0)" rx="0.9603999999999997" ry="0.9603999999999997"/>
    <ellipse  transform="translate(44.96082028467318,-14.897595940864) rotate(-0.0)" rx="0.6722799999999998" ry="0.6722799999999998"/>
    <rect  transform="translate(41.6,-6.4) rotate(-0.0)" width="12.8" height="12.8"/>
    <ellipse  transform="translate(46.71721410419486,1.3713408000000014) rotate(-0.0)" rx="2.8" ry="2.8"/>
    <ellipse  transform="translate(46.71721410419486,1.3713408000000014) rotate(-0.0)" rx="1.9599999999999997" ry="1.9599999999999997"/>
    <ellipse  transform="translate(46.71721410419486,1.3713408000000014) rotate(-0.0)" rx="1.3719999999999997" ry="1.3719999999999997"/>
    <ellipse  transform="translate(46.71721410419486,1.3713408000000014) rotate(-0.0)" rx="0.9603999999999997" ry="0.9603999999999997"/>
    <ellipse  transform="translate(46.71721410419486,1.3713408000000014) rotate(-0.0)" rx="0.6722799999999998" ry="0.6722799999999998"/>
    <rect  transform="translate(41.6,9.6) rotate(-0.0)" width="12.8" height="12.8"/>
    <ellipse  transform="translate(44.7957902314105,16.047092137983995) rotate(-0.0)" rx="2.8" ry="2.8"/>
    <ellipse  transform="translate(44.7957902314105,16.047092137983995) rotate(-0.0)" rx="1.9599999999999997" ry="1.9599999999999997"/>
    <ellipse  transform="translate(44.7957902314105,16.047092137983995) rotate(-0.0)" rx="1.3719999999999997" ry="1.3719999999999997"/>
    <ellipse  transform="translate(44.7957902314105,16.047092137983995) rotate(-0.0)" rx="0.9603999999999997" ry="0.9603999999999997"/>
    <ellipse  transform="translate(44.7957902314105,16.047092137983995) rotate(-0.0)" rx="0.6722799999999998" ry="0.6722799999999998"/>
    <rect  transform="translate(41.6,25.6) rotate(-0.0)" width="12.8" height="12.8"/>
    <ellipse  transform="translate(44.342540682358596,28.6628864) rotate(-0.0)" rx="2.8" ry="2.8"/>
    <ellipse  transform="translate(44.342540682358596,28.6628864) rotate(-0.0)" rx="1.9599999999999997" ry="1.9599999999999997"/>
    <ellipse  transform="translate(44.342540682358596,28.6628864) rotate(-0.0)" rx="1.3719999999999997" ry="1.3719999999999997"/>
    <ellipse  transform="translate(44.342540682358596,28.6628864) rotate(-0.0)" rx="0.9603999999999997" ry="0.9603999999999997"/>
    <ellipse  transform="translate(44.342540682358596,28.6628864) rotate(-0.0)" rx="0.6722799999999998" ry="0.6722799999999998"/>
    <rect  transform="translate(41.6,41.6) rotate(-0.0)" width="12.8" height="12.8"/>
    <ellipse  transform="translate(49.91590107750835,51.3371136) rotate(-0.0)" rx="2.8" ry="2.8"/>
    <ellipse  transform="translate(49.91590107750835,51.3371136) rotate(-0.0)" rx="1.9599999999999997" ry="1.9599999999999997"/>
    <ellipse  transform="translate(49.91590107750835,51.3371136) rotate(-0.0)" rx="1.3719999999999997" ry="1.3719999999999997"/>
    <ellipse  transform="translate(49.91590107750835,51.3371136) rotate(-0.0)" rx="0.9603999999999997" ry="0.9603999999999997"/>
    <ellipse  transform="translate(49.91590107750835,51.3371136) rotate(-0.0)" rx="0.6722799999999998" ry="0.6722799999999998"/>
    <rect  transform="translate(41.6,57.6) rotate(-0.0)" width="12.8" height="12.8"/>
    <ellipse  transform="translate(50.93073715661499,62.84464390144) rotate(-0.0)" rx="2.8" ry="2.8"/>
    <ellipse  transform="translate(50.93073715661499,62.84464390144) rotate(-0.0)" rx="1.9599999999999997" ry="1.9599999999999997"/>
    <ellipse  transform="translate(50.93073715661499,62.84464390144) rotate(-0.0)" rx="1.3719999999999997" ry="1.3719999999999997"/>
    <ellipse  transform="translate(50.93073715661499,62.84464390144) rotate(-0.0)" rx="0.9603999999999997" ry="0.9603999999999997"/>
    <ellipse  transform="translate(50.93073715661499,62.84464390144) rotate(-0.0)" rx="0.6722799999999998" ry="0.6722799999999998"/>
    <rect  transform="translate(41.6,73.6) rotate(-0.0)" width="12.8" height="12.8"/>
    <ellipse  transform="translate(48.25649810888055,81.3713408) rotate(-0.0)" rx="2.8" ry="2.8"/>
    <ellipse  transform="translate(48.25649810888055,81.3713408) rotate(-0.0)" rx="1.9599999999999997" ry="1.9599999999999997"/>
    <ellipse  transform="translate(48.25649810888055,81.3713408) rotate(-0.0)" rx="1.3719999999999997" ry="1.3719999999999997"/>
    <ellipse  transform="translate(48.25649810888055,81.3713408) rotate(-0.0)" rx="0.9603999999999997" ry="0.9603999999999997"/>
    <ellipse  transform="translate(48.25649810888055,81.3713408) rotate(-0.0)" rx="0.6722799999999998" ry="0.6722799999999998"/>
    <rect  transform="translate(57.6,-86.4) rotate(-0.0)" width="12.8" height="12.8"/>
    <ellipse  transform="translate(66.62346179611217,-81.3565952) rotate(-0.0)" rx="2.8" ry="2.8"/>
    <ellipse  transform="translate(66.62346179611217,-81.3565952) rotate(-0.0)" rx="1.9599999999999997" ry="1.9599999999999997"/>
    <ellipse  transform="translate(66.62346179611217,-81.3565952) rotate(-0.0)" rx="1.3719999999999997" ry="1.3719999999999997"/>
    <ellipse  transform="translate(66.62346179611217,-81.3565952) rotate(-0.0)" rx="0.9603999999999997" ry="0.9603999999999997"/>
    <ellipse  transform="translate(66.62346179611217,-81.3565952) rotate(-0.0)" rx="0.6722799999999998" ry="0.6722799999999998"/>
    <rect  transform="translate(57.6,-70.4) rotate(-0.0)" width="12.8" height="12.8"/>
    <ellipse  transform="translate(63.544211177213455,-64.3336192) rotate(-0.0)" rx="2.8" ry="2.8"/>
    <ellipse  transform="translate(63.544211177213455,-64.3336192) rotate(-0.0)" rx="1.9599999999999997" ry="1.9599999999999997"/>
    <ellipse  transform="translate(63.544211177213455,-64.3336192) rotate(-0.0)" rx="1.3719999999999997" ry="1.3719999999999997"/>
    <ellipse  transform="translate(63.544211177213455,-64.3336192) rotate(-0.0)" rx="0.9603999999999997" ry="0.9603999999999997"/>
    <ellipse  transform="translate(63.544211177213455,-64.3336192) rotate(-0.0)" rx="0.6722799999999998" ry="0.6722799999999998"/>
    <rect  transform="translate(57.6,-54.4) rotate(-0.0)" width="12.8" height="12.8"/>
    <ellipse  transform="translate(62.050877361896575,-44.724724137984) rotate(-0.0)" rx="2.8" ry="2.8"/>
    <ellipse  transform="translate(62.050877361896575,-44.724724137984) rotate(-0.0)" rx="1.9599999999999997" ry="1.9599999999999997"/>
    <ellipse  transform="translate(62.050877361896575,-44.724724137984) rotate(-0.0)" rx="1.3719999999999997" ry="1.3719999999999997"/>
    <ellipse  transform="translate(62.050877361896575,-44.724724137984) rotate(-0.0)" rx="0.9603999999999997" ry="0.9603999999999997"/>
    <ellipse  transform="translate(62.050877361896575,-44.724724137984) rotate(-0.0)" rx="0.6722799999999998" ry="0.6722799999999998"/>
    <rect  transform="translate(57.6,-38.4) rotate(-0.0)" width="12.8" height="12.8"/>
    <ellipse  transform="translate(59.73258807308215,-35.379496583168) rotate(-0.0)" rx="2.8" ry="2.8"/>
    <ellipse  transform="translate(59.73258807308215,-35.379496583168) rotate(-0.0)" rx="1.9599999999999997" ry="1.9599999999999997"/>
    <ellipse  transform="translate(59.73258807308215,-35.379496583168) rotate(-0.0)" rx="1.3719999999999997" ry="1.3719999999999997"/>
    <ellipse  transform="translate(59.73258807308215,-35.379496583168) rotate(-0.0)" rx="0.9603999999999997" ry="0.9603999999999997"/>
    <ellipse  transform="translate(59.73258807308215,-35.379496583168) rotate(-0.0)" rx="0.6722799999999998" ry="0.6722799999999998"/>
    <rect  transform="translate(57.6,-22.4) rotate(-0.0)" width="12.8" height="12.8"/>
    <ellipse  transform="translate(62.792604868321234,-14.781229563903999) rotate(-0.0)" rx="2.8" ry="2.8"/>
    <ellipse  transform="translate(62.792604868321234,-14.781229563903999) rotate(-0.0)" rx="1.9599999999999997" ry="1.9599999999999997"/>
    <ellipse  transform="translate(62.792604868321234,-14.781229563903999) rotate(-0.0)" rx="1.3719999999999997" ry="1.3719999999999997"/>
    <ellipse  transform="translate(62.792604868321234,-14.781229563903999) rotate(-0.0)" rx="0.9603999999999997" ry="0.9603999999999997"/>
    <ellipse  transform="translate(62.792604868321234,-14.781229563903999) rotate(-0.0)" rx="0.6722799999999998" ry="0.6722799999999998"/>
    <rect  transform="translate(57.6,-6.4) rotate(-0.0)" width="12.8" height="12.8"/>
    <ellipse  transform="translate(63.44451467552378,-1.356595200000001) rotate(-0.0)" rx="2.8" ry="2.8"/>
    <ellipse  transform="translate(63.44451467552378,-1.356595200000001) rotate(-0.0)" rx="1.9599999999999997" ry="1.9599999999999997"/>
    <ellipse  transform="translate(63.44451467552378,-1.356595200000001) rotate(-0.0)" rx="1.3719999999999997" ry="1.3719999999999997"/>
    <ellipse  transform="translate(63.44451467552378,-1.356595200000001) rotate(-0.0)" rx="0.9603999999999997" ry="0.9603999999999997"/>
    <ellipse  transform="translate(63.44451467552378,-1.356595200000001) rotate(-0.0)" rx="0.6722799999999998" ry="0.6722799999999998"/>
    <rect  transform="translate(57.6,9.6) rotate(-0.0)" width="12.8" height="12.8"/>
    <ellipse  transform="translate(62.537819663016805,17.572993957888002) rotate(-0.0)" rx="2.8" ry="2.8"/>
    <ellipse  transform="translate(62.537819663016805,17.572993957888002) rotate(-0.0)" rx="1.9599999999999997" ry="1.9599999999999997"/>
    <ellipse  transform="translate(62.537819663016805,17.572993957888002) rotate(-0.0)" rx="1.3719999999999997" ry="1.3719999999999997"/>
    <ellipse  transform="translate(62.537819663016805,17.572993957888002) rotate(-0.0)" rx="0.9603999999999997" ry="0.9603999999999997"/>
    <ellipse  transform="translate(62.537819663016805,17.572993957888002) rotate(-0.0)" rx="0.6722799999999998" ry="0.6722799999999998"/>
    <rect  transform="translate(57.6,25.6) rotate(-0.0)" width="12.8" height="12.8"/>
    <ellipse  transform="translate(62.063817776431165,30.613151842304) rotate(-0.0)" rx="2.8" ry="2.8"/>
    <ellipse  transform="translate(62.063817776431165,30.613151842304) rotate(-0.0)" rx="1.9599999999999997" ry="1.9599999999999997"/>
    <ellipse  transform="translate(62.063817776431165,30.613151842304) rotate(-0.0)" rx="1.3719999999999997" ry="1.3719999999999997"/>
    <ellipse  transform="translate(62.063817776431165,30.613151842304) rotate(-0.0)" rx="0.9603999999999997" ry="0.9603999999999997"/>
    <ellipse  transform="translate(62.063817776431165,30.613151842304) rotate(-0.0)" rx="0.6722799999999998" ry="0.6722799999999998"/>
    <rect  transform="translate(57.6,41.6) rotate(-0.0)" width="12.8" height="12.8"/>
    <ellipse  transform="translate(66.37706547721382,51.591304740864004) rotate(-0.0)" rx="2.8" ry="2.8"/>
    <ellipse  transform="translate(66.37706547721382,51.591304740864004) rotate(-0.0)" rx="1.9599999999999997" ry="1.9599999999999997"/>
    <ellipse  transform="translate(66.37706547721382,51.591304740864004) rotate(-0.0)" rx="1.3719999999999997" ry="1.3719999999999997"/>
    <ellipse  transform="translate(66.37706547721382,51.591304740864004) rotate(-0.0)" rx="0.9603999999999997" ry="0.9603999999999997"/>
    <ellipse  transform="translate(66.37706547721382,51.591304740864004) rotate(-0.0)" rx="0.6722799999999998" ry="0.6722799999999998"/>
    <rect  transform="translate(57.6,57.6) rotate(-0.0)" width="12.8" height="12.8"/>
    <ellipse  transform="translate(67.92493850030817,62.624081575935996) rotate(-0.0)" rx="2.8" ry="2.8"/>
    <ellipse  transform="translate(67.92493850030817,62.624081575935996) rotate(-0.0)" rx="1.9599999999999997" ry="1.9599999999999997"/>
    <ellipse  transform="translate(67.92493850030817,62.624081575935996) rotate(-0.0)" rx="1.3719999999999997" ry="1.3719999999999997"/>
    <ellipse  transform="translate(67.92493850030817,62.624081575935996) rotate(-0.0)" rx="0.9603999999999997" ry="0.9603999999999997"/>
    <ellipse  transform="translate(67.92493850030817,62.624081575935996) rotate(-0.0)" rx="0.6722799999999998" ry="0.6722799999999998"/>
    <rect  transform="translate(57.6,73.6) rotate(-0.0)" width="12.8" height="12.8"/>
    <ellipse  transform="translate(64.56234671901352,78.3097856) rotate(-0.0)" rx="2.8" ry="2.8"/>
    <ellipse  transform="translate(64.56234671901352,78.3097856) rotate(-0.0)" rx="1.9599999999999997" ry="1.9599999999999997"/>
    <ellipse  transform="translate(64.56234671901352,78.3097856) rotate(-0.0)" rx="1.3719999999999997" ry="1.3719999999999997"/>
    <ellipse  transform="translate(64.56234671901352,78.3097856) rotate(-0.0)" rx="0.9603999999999997" ry="0.9603999999999997"/>
    <ellipse  transform="translate(64.56234671901352,78.3097856) rotate(-0.0)" rx="0.6722799999999998" ry="0.6722799999999998"/>
    <rect  transform="translate(73.6,-86.4) rotate(-0.0)" width="12.8" height="12.8"/>
    <ellipse  transform="translate(80.14548136351026,-80.0) rotate(-0.0)" rx="2.8" ry="2.8"/>
    <ellipse  transform="translate(80.14548136351026,-80.0) rotate(-0.0)" rx="1.9599999999999997" ry="1.9599999999999997"/>
    <ellipse  transform="translate(80.14548136351026,-80.0) rotate(-0.0)" rx="1.3719999999999997" ry="1.3719999999999997"/>
    <ellipse  transform="translate(80.14548136351026,-80.0) rotate(-0.0)" rx="0.9603999999999997" ry="0.9603999999999997"/>
    <ellipse  transform="translate(80.14548136351026,-80.0) rotate(-0.0)" rx="0.6722799999999998" ry="0.6722799999999998"/>
    <rect  transform="translate(73.6,-70.4) rotate(-0.0)" width="12.8" height="12.8"/>
    <ellipse  transform="translate(79.67808735547347,-62.977024) rotate(-0.0)" rx="2.8" ry="2.8"/>
    <ellipse  transform="translate(79.67808735547347,-62.977024) rotate(-0.0)" rx="1.9599999999999997" ry="1.9599999999999997"/>
    <ellipse  transform="translate(79.67808735547347,-62.977024) rotate(-0.0)" rx="1.3719999999999997" ry="1.3719999999999997"/>
    <ellipse  transform="translate(79.67808735547347,-62.977024) rotate(-0.0)" rx="0.9603999999999997" ry="0.9603999999999997"/>
    <ellipse  transform="translate(79.67808735547347,-62.977024) rotate(-0.0)" rx="0.6722799999999998" ry="0.6722799999999998"/>
    <rect  transform="translate(73.6,-54.4) rotate(-0.0)" width="12.8" height="12.8"/>
    <ellipse  transform="translate(79.39350020578608,-47.405568) rotate(-0.0)" rx="2.8" ry="2.8"/>
    <ellipse  transform="translate(79.39350020578608,-47.405568) rotate(-0.0)" rx="1.9599999999999997" ry="1.9599999999999997"/>
    <ellipse  transform="translate(79.39350020578608,-47.405568) rotate(-0.0)" rx="1.3719999999999997" ry="1.3719999999999997"/>
    <ellipse  transform="translate(79.39350020578608,-47.405568) rotate(-0.0)" rx="0.9603999999999997" ry="0.9603999999999997"/>
    <ellipse  transform="translate(79.39350020578608,-47.405568) rotate(-0.0)" rx="0.6722799999999998" ry="0.6722799999999998"/>
    <rect  transform="translate(73.6,-38.4) rotate(-0.0)" width="12.8" height="12.8"/>
    <ellipse  transform="translate(79.99365075577137,-33.9657728) rotate(-0.0)" rx="2.8" ry="2.8"/>
    <ellipse  transform="translate(79.99365075577137,-33.9657728) rotate(-0.0)" rx="1.9599999999999997" ry="1.9599999999999997"/>
    <ellipse  transform="translate(79.99365075577137,-33.9657728) rotate(-0.0)" rx="1.3719999999999997" ry="1.3719999999999997"/>
    <ellipse  transform="translate(79.99365075577137,-33.9657728) rotate(-0.0)" rx="0.9603999999999997" ry="0.9603999999999997"/>
    <ellipse  transform="translate(79.99365075577137,-33.9657728) rotate(-0.0)" rx="0.6722799999999998" ry="0.6722799999999998"/>
    <rect  transform="translate(73.6,-22.4) rotate(-0.0)" width="12.8" height="12.8"/>
    <ellipse  transform="translate(78.34515938843526,-15.6663808) rotate(-0.0)" rx="2.8" ry="2.8"/>
    <ellipse  transform="translate(78.34515938843526,-15.6663808) rotate(-0.0)" rx="1.9599999999999997" ry="1.9599999999999997"/>
    <ellipse  transform="translate(78.34515938843526,-15.6663808) rotate(-0.0)" rx="1.3719999999999997" ry="1.3719999999999997"/>
    <ellipse  transform="translate(78.34515938843526,-15.6663808) rotate(-0.0)" rx="0.9603999999999997" ry="0.9603999999999997"/>
    <ellipse  transform="translate(78.34515938843526,-15.6663808) rotate(-0.0)" rx="0.6722799999999998" ry="0.6722799999999998"/>
    <rect  transform="translate(73.6,-6.4) rotate(-0.0)" width="12.8" height="12.8"/>
    <ellipse  transform="translate(80.70955107552562,0.0) rotate(-0.0)" rx="2.8" ry="2.8"/>
    <ellipse  transform="translate(80.70955107552562,0.0) rotate(-0.0)" rx="1.9599999999999997" ry="1.9599999999999997"/>
    <ellipse  transform="translate(80.70955107552562,0.0) rotate(-0.0)" rx="1.3719999999999997" ry="1.3719999999999997"/>
    <ellipse  transform="translate(80.70955107552562,0.0) rotate(-0.0)" rx="0.9603999999999997" ry="0.9603999999999997"/>
    <ellipse  transform="translate(80.70955107552562,0.0) rotate(-0.0)" rx="0.6722799999999998" ry="0.6722799999999998"/>
    <rect  transform="translate(73.6,9.6) rotate(-0.0)" width="12.8" height="12.8"/>
    <ellipse  transform="translate(80.84616381337209,17.022976) rotate(-0.0)" rx="2.8" ry="2.8"/>
    <ellipse  transform="translate(80.84616381337209,17.022976) rotate(-0.0)" rx="1.9599999999999997" ry="1.9599999999999997"/>
    <ellipse  transform="translate(80.84616381337209,17.022976) rotate(-0.0)" rx="1.3719999999999997" ry="1.3719999999999997"/>
    <ellipse  transform="translate(80.84616381337209,17.022976) rotate(-0.0)" rx="0.9603999999999997" ry="0.9603999999999997"/>
    <ellipse  transform="translate(80.84616381337209,17.022976) rotate(-0.0)" rx="0.6722799999999998" ry="0.6722799999999998"/>
    <rect  transform="translate(73.6,25.6) rotate(-0.0)" width="12.8" height="12.8"/>
    <ellipse  transform="translate(79.21304370234658,28.6628864) rotate(-0.0)" rx="2.8" ry="2.8"/>
    <ellipse  transform="translate(79.21304370234658,28.6628864) rotate(-0.0)" rx="1.9599999999999997" ry="1.9599999999999997"/>
    <ellipse  transform="translate(79.21304370234658,28.6628864) rotate(-0.0)" rx="1.3719999999999997" ry="1.3719999999999997"/>
    <ellipse  transform="translate(79.21304370234658,28.6628864) rotate(-0.0)" rx="0.9603999999999997" ry="0.9603999999999997"/>
    <ellipse  transform="translate(79.21304370234658,28.6628864) rotate(-0.0)" rx="0.6722799999999998" ry="0.6722799999999998"/>
    <rect  transform="translate(73.6,41.6) rotate(-0.0)" width="12.8" height="12.8"/>
    <ellipse  transform="translate(78.73071006386849,49.965772799999996) rotate(-0.0)" rx="2.8" ry="2.8"/>
    <ellipse  transform="translate(78.73071006386849,49.965772799999996) rotate(-0.0)" rx="1.9599999999999997" ry="1.9599999999999997"/>
    <ellipse  transform="translate(78.73071006386849,49.965772799999996) rotate(-0.0)" rx="1.3719999999999997" ry="1.3719999999999997"/>
    <ellipse  transform="translate(78.73071006386849,49.965772799999996) rotate(-0.0)" rx="0.9603999999999997" ry="0.9603999999999997"/>
    <ellipse  transform="translate(78.73071006386849,49.965772799999996) rotate(-0.0)" rx="0.6722799999999998" ry="0.6722799999999998"/>
    <rect  transform="translate(73.6,57.6) rotate(-0.0)" width="12.8" height="12.8"/>
    <ellipse  transform="translate(81.36367227779277,64.0) rotate(-0.0)" rx="2.8" ry="2.8"/>
    <ellipse  transform="translate(81.36367227779277,64.0) rotate(-0.0)" rx="1.9599999999999997" ry="1.9599999999999997"/>
    <ellipse  transform="translate(81.36367227779277,64.0) rotate(-0.0)" rx="1.3719999999999997" ry="1.3719999999999997"/>
    <ellipse  transform="translate(81.36367227779277,64.0) rotate(-0.0)" rx="0.9603999999999997" ry="0.9603999999999997"/>
    <ellipse  transform="translate(81.36367227779277,64.0) rotate(-0.0)" rx="0.6722799999999998" ry="0.6722799999999998"/>
    <rect  transform="translate(73.6,73.6) rotate(-0.0)" width="12.8" height="12.8"/>
    <ellipse  transform="translate(81.55460424189896,80.0) rotate(-0.0)" rx="2.8" ry="2.8"/>
    <ellipse  transform="translate(81.55460424189896,80.0) rotate(-0.0)" rx="1.9599999999999997" ry="1.9599999999999997"/>
    <ellipse  transform="translate(81.55460424189896,80.0) rotate(-0.0)" rx="1.3719999999999997" ry="1.3719999999999997"/>
    <ellipse  transform="translate(81.55460424189896,80.0) rotate(-0.0)" rx="0.9603999999999997" ry="0.9603999999999997"/>
    <ellipse  transform="translate(81.55460424189896,80.0) rotate(-0.0)" rx="0.6722799999999998" ry="0.6722799999999998"/>
  </g>
</svg>